%!PS-Adobe-3.0 EPSF-3.0
%%Creator: MATLAB, The MathWorks, Inc. Version 8.0.0.783 (R2012b). Operating System: Microsoft Windows 7.
%%Title: E:\gwispr-paper-submitted\overlap_T2D_V3nogrid2.eps
%%CreationDate: 04/07/2014  14:52:00
%%DocumentNeededFonts: Helvetica
%%DocumentProcessColors: Cyan Magenta Yellow Black
%%LanguageLevel: 2
%%Pages: 1
%%BoundingBox:  -216    70   811   772
%%EndComments

%%BeginProlog
% MathWorks dictionary
/MathWorks 160 dict begin
% definition operators
/bdef {bind def} bind def
/ldef {load def} bind def
/xdef {exch def} bdef
/xstore {exch store} bdef
% operator abbreviations
/c  /clip ldef
/cc /concat ldef
/cp /closepath ldef
/gr /grestore ldef
/gs /gsave ldef
/mt /moveto ldef
/np /newpath ldef
/cm /currentmatrix ldef
/sm /setmatrix ldef
/rm /rmoveto ldef
/rl /rlineto ldef
/s {show newpath} bdef
/sc {setcmykcolor} bdef
/sr /setrgbcolor ldef
/sg /setgray ldef
/w /setlinewidth ldef
/j /setlinejoin ldef
/cap /setlinecap ldef
/rc {rectclip} bdef
/rf {rectfill} bdef
% page state control
/pgsv () def
/bpage {/pgsv save def} bdef
/epage {pgsv restore} bdef
/bplot /gsave ldef
/eplot {stroke grestore} bdef
% orientation switch
/portraitMode 0 def /landscapeMode 1 def /rotateMode 2 def
% coordinate system mappings
/dpi2point 0 def
% font control
/FontSize 0 def
/FMS {/FontSize xstore findfont [FontSize 0 0 FontSize neg 0 0]
  makefont setfont} bdef
/ISOLatin1Encoding where {pop /WindowsLatin1Encoding 256 array bdef
ISOLatin1Encoding WindowsLatin1Encoding copy pop
/.notdef/.notdef/quotesinglbase/florin/quotedblbase/ellipsis/dagger
/daggerdbl/circumflex/perthousand/Scaron/guilsinglleft/OE/.notdef/.notdef
/.notdef/.notdef/quoteleft/quoteright/quotedblleft/quotedblright/bullet
/endash/emdash/tilde/trademark/scaron/guilsinglright/oe/.notdef/.notdef
/Ydieresis WindowsLatin1Encoding 128 32 getinterval astore pop}
{/WindowsLatin1Encoding StandardEncoding bdef} ifelse
/reencode {exch dup where {pop load} {pop StandardEncoding} ifelse
  exch dup 3 1 roll findfont dup length dict begin
  { 1 index /FID ne {def}{pop pop} ifelse } forall
  /Encoding exch def currentdict end definefont pop} bdef
/isroman {findfont /CharStrings get /Agrave known} bdef
/FMSR {3 1 roll 1 index dup isroman {reencode} {pop pop} ifelse
  exch FMS} bdef
/csm {1 dpi2point div -1 dpi2point div scale neg translate
 dup landscapeMode eq {pop -90 rotate}
  {rotateMode eq {90 rotate} if} ifelse} bdef
% line types: solid, dotted, dashed, dotdash
/SO { [] 0 setdash } bdef
/DO { [.5 dpi2point mul 4 dpi2point mul] 0 setdash } bdef
/DA { [6 dpi2point mul] 0 setdash } bdef
/DD { [.5 dpi2point mul 4 dpi2point mul 6 dpi2point mul 4
  dpi2point mul] 0 setdash } bdef
% macros for lines and objects
/L {lineto stroke} bdef
/MP {3 1 roll moveto 1 sub {rlineto} repeat} bdef
/AP {{rlineto} repeat} bdef
/PDlw -1 def
/W {/PDlw currentlinewidth def setlinewidth} def
/PP {closepath eofill} bdef
/DP {closepath stroke} bdef
/MR {4 -2 roll moveto dup  0 exch rlineto exch 0 rlineto
  neg 0 exch rlineto closepath} bdef
/FR {MR stroke} bdef
/PR {MR fill} bdef
/L1i {{currentfile picstr readhexstring pop} image} bdef
/tMatrix matrix def
/MakeOval {newpath tMatrix currentmatrix pop translate scale
0 0 1 0 360 arc tMatrix setmatrix} bdef
/FO {MakeOval stroke} bdef
/PO {MakeOval fill} bdef
/PD {currentlinewidth 2 div 0 360 arc fill
   PDlw -1 eq not {PDlw w /PDlw -1 def} if} def
/FA {newpath tMatrix currentmatrix pop translate scale
  0 0 1 5 -2 roll arc tMatrix setmatrix stroke} bdef
/PA {newpath tMatrix currentmatrix pop	translate 0 0 moveto scale
  0 0 1 5 -2 roll arc closepath tMatrix setmatrix fill} bdef
/FAn {newpath tMatrix currentmatrix pop translate scale
  0 0 1 5 -2 roll arcn tMatrix setmatrix stroke} bdef
/PAn {newpath tMatrix currentmatrix pop translate 0 0 moveto scale
  0 0 1 5 -2 roll arcn closepath tMatrix setmatrix fill} bdef
/vradius 0 def /hradius 0 def /lry 0 def
/lrx 0 def /uly 0 def /ulx 0 def /rad 0 def
/MRR {/vradius xdef /hradius xdef /lry xdef /lrx xdef /uly xdef
  /ulx xdef newpath tMatrix currentmatrix pop ulx hradius add uly
  vradius add translate hradius vradius scale 0 0 1 180 270 arc 
  tMatrix setmatrix lrx hradius sub uly vradius add translate
  hradius vradius scale 0 0 1 270 360 arc tMatrix setmatrix
  lrx hradius sub lry vradius sub translate hradius vradius scale
  0 0 1 0 90 arc tMatrix setmatrix ulx hradius add lry vradius sub
  translate hradius vradius scale 0 0 1 90 180 arc tMatrix setmatrix
  closepath} bdef
/FRR {MRR stroke } bdef
/PRR {MRR fill } bdef
/MlrRR {/lry xdef /lrx xdef /uly xdef /ulx xdef /rad lry uly sub 2 div def
  newpath tMatrix currentmatrix pop ulx rad add uly rad add translate
  rad rad scale 0 0 1 90 270 arc tMatrix setmatrix lrx rad sub lry rad
  sub translate rad rad scale 0 0 1 270 90 arc tMatrix setmatrix
  closepath} bdef
/FlrRR {MlrRR stroke } bdef
/PlrRR {MlrRR fill } bdef
/MtbRR {/lry xdef /lrx xdef /uly xdef /ulx xdef /rad lrx ulx sub 2 div def
  newpath tMatrix currentmatrix pop ulx rad add uly rad add translate
  rad rad scale 0 0 1 180 360 arc tMatrix setmatrix lrx rad sub lry rad
  sub translate rad rad scale 0 0 1 0 180 arc tMatrix setmatrix
  closepath} bdef
/FtbRR {MtbRR stroke } bdef
/PtbRR {MtbRR fill } bdef
/stri 6 array def /dtri 6 array def
/smat 6 array def /dmat 6 array def
/tmat1 6 array def /tmat2 6 array def /dif 3 array def
/asub {/ind2 exch def /ind1 exch def dup dup
  ind1 get exch ind2 get sub exch } bdef
/tri_to_matrix {
  2 0 asub 3 1 asub 4 0 asub 5 1 asub
  dup 0 get exch 1 get 7 -1 roll astore } bdef
/compute_transform {
  dmat dtri tri_to_matrix tmat1 invertmatrix 
  smat stri tri_to_matrix tmat2 concatmatrix } bdef
/ds {stri astore pop} bdef
/dt {dtri astore pop} bdef
/db {2 copy /cols xdef /rows xdef mul dup 3 mul string
  currentfile 
  3 index 0 eq {/ASCIIHexDecode filter}
  {/ASCII85Decode filter 3 index 2 eq {/RunLengthDecode filter} if }
  ifelse exch readstring pop
  dup 0 3 index getinterval /rbmap xdef
  dup 2 index dup getinterval /gbmap xdef
  1 index dup 2 mul exch getinterval /bbmap xdef pop pop}bdef
/it {gs np dtri aload pop moveto lineto lineto cp c
  cols rows 8 compute_transform 
  rbmap gbmap bbmap true 3 colorimage gr}bdef
/il {newpath moveto lineto stroke}bdef
currentdict end def
%%EndProlog

%%BeginSetup
MathWorks begin

0 cap

end
%%EndSetup

%%Page: 1 1
%%BeginPageSetup
%%PageBoundingBox:  -216    70   811   772
MathWorks begin
bpage
%%EndPageSetup

%%BeginObject: obj1
bplot

/dpi2point 12 def
portraitMode -2592 9264 csm

    0     0 12331  8419 rc
87 dict begin %Colortable dictionary
/c0 { 0.000000 0.000000 0.000000 sr} bdef
/c1 { 1.000000 1.000000 1.000000 sr} bdef
/c2 { 0.900000 0.000000 0.000000 sr} bdef
/c3 { 0.000000 0.820000 0.000000 sr} bdef
/c4 { 0.000000 0.000000 0.800000 sr} bdef
/c5 { 0.910000 0.820000 0.320000 sr} bdef
/c6 { 1.000000 0.260000 0.820000 sr} bdef
/c7 { 0.000000 0.820000 0.820000 sr} bdef
c0
1 j
1 sg
   0    0 12332 8420 rf
6 w
0 1487 2632 0 0 -1487 1603 2237 4 MP
PP
-2632 0 0 1487 2632 0 0 -1487 1603 2237 5 MP stroke
4 w
6 w
0 sg
1603  750 mt 4235  750 L
1603 2237 mt 4235 2237 L
4235 2237 mt 4235  750 L
1603 2237 mt 1603  750 L
1603 2237 mt 4235 2237 L
1603 2237 mt 1603  750 L
1603 2237 mt 1603 2223 L
1603  750 mt 1603  763 L
1603 2237 mt 1603 2210 L
1603  750 mt 1603  776 L
%%IncludeResource: font Helvetica
/Helvetica /WindowsLatin1Encoding 144 FMSR

1497 2449 mt 
(10) s
%%IncludeResource: font Helvetica
/Helvetica /WindowsLatin1Encoding 96 FMSR

1657 2360 mt 
(0) s
1761 2237 mt 1761 2223 L
1761  750 mt 1761  763 L
1854 2237 mt 1854 2223 L
1854  750 mt 1854  763 L
1919 2237 mt 1919 2223 L
1919  750 mt 1919  763 L
1970 2237 mt 1970 2223 L
1970  750 mt 1970  763 L
2012 2237 mt 2012 2223 L
2012  750 mt 2012  763 L
2047 2237 mt 2047 2223 L
2047  750 mt 2047  763 L
2078 2237 mt 2078 2223 L
2078  750 mt 2078  763 L
2105 2237 mt 2105 2223 L
2105  750 mt 2105  763 L
2129 2237 mt 2129 2223 L
2129  750 mt 2129  763 L
2129 2237 mt 2129 2210 L
2129  750 mt 2129  776 L
%%IncludeResource: font Helvetica
/Helvetica /WindowsLatin1Encoding 144 FMSR

2023 2449 mt 
(10) s
%%IncludeResource: font Helvetica
/Helvetica /WindowsLatin1Encoding 96 FMSR

2183 2360 mt 
(1) s
2287 2237 mt 2287 2223 L
2287  750 mt 2287  763 L
2380 2237 mt 2380 2223 L
2380  750 mt 2380  763 L
2446 2237 mt 2446 2223 L
2446  750 mt 2446  763 L
2497 2237 mt 2497 2223 L
2497  750 mt 2497  763 L
2539 2237 mt 2539 2223 L
2539  750 mt 2539  763 L
2574 2237 mt 2574 2223 L
2574  750 mt 2574  763 L
2604 2237 mt 2604 2223 L
2604  750 mt 2604  763 L
2631 2237 mt 2631 2223 L
2631  750 mt 2631  763 L
2655 2237 mt 2655 2223 L
2655  750 mt 2655  763 L
2655 2237 mt 2655 2210 L
2655  750 mt 2655  776 L
%%IncludeResource: font Helvetica
/Helvetica /WindowsLatin1Encoding 144 FMSR

2549 2449 mt 
(10) s
%%IncludeResource: font Helvetica
/Helvetica /WindowsLatin1Encoding 96 FMSR

2709 2360 mt 
(2) s
2814 2237 mt 2814 2223 L
2814  750 mt 2814  763 L
2906 2237 mt 2906 2223 L
2906  750 mt 2906  763 L
2972 2237 mt 2972 2223 L
2972  750 mt 2972  763 L
3023 2237 mt 3023 2223 L
3023  750 mt 3023  763 L
3065 2237 mt 3065 2223 L
3065  750 mt 3065  763 L
3100 2237 mt 3100 2223 L
3100  750 mt 3100  763 L
3131 2237 mt 3131 2223 L
3131  750 mt 3131  763 L
3158 2237 mt 3158 2223 L
3158  750 mt 3158  763 L
3182 2237 mt 3182 2223 L
3182  750 mt 3182  763 L
3182 2237 mt 3182 2210 L
3182  750 mt 3182  776 L
%%IncludeResource: font Helvetica
/Helvetica /WindowsLatin1Encoding 144 FMSR

3076 2449 mt 
(10) s
%%IncludeResource: font Helvetica
/Helvetica /WindowsLatin1Encoding 96 FMSR

3236 2360 mt 
(3) s
3340 2237 mt 3340 2223 L
3340  750 mt 3340  763 L
3433 2237 mt 3433 2223 L
3433  750 mt 3433  763 L
3499 2237 mt 3499 2223 L
3499  750 mt 3499  763 L
3550 2237 mt 3550 2223 L
3550  750 mt 3550  763 L
3591 2237 mt 3591 2223 L
3591  750 mt 3591  763 L
3627 2237 mt 3627 2223 L
3627  750 mt 3627  763 L
3657 2237 mt 3657 2223 L
3657  750 mt 3657  763 L
3684 2237 mt 3684 2223 L
3684  750 mt 3684  763 L
3708 2237 mt 3708 2223 L
3708  750 mt 3708  763 L
3708 2237 mt 3708 2210 L
3708  750 mt 3708  776 L
%%IncludeResource: font Helvetica
/Helvetica /WindowsLatin1Encoding 144 FMSR

3602 2449 mt 
(10) s
%%IncludeResource: font Helvetica
/Helvetica /WindowsLatin1Encoding 96 FMSR

3762 2360 mt 
(4) s
3867 2237 mt 3867 2223 L
3867  750 mt 3867  763 L
3959 2237 mt 3959 2223 L
3959  750 mt 3959  763 L
4025 2237 mt 4025 2223 L
4025  750 mt 4025  763 L
4076 2237 mt 4076 2223 L
4076  750 mt 4076  763 L
4118 2237 mt 4118 2223 L
4118  750 mt 4118  763 L
4153 2237 mt 4153 2223 L
4153  750 mt 4153  763 L
4183 2237 mt 4183 2223 L
4183  750 mt 4183  763 L
4210 2237 mt 4210 2223 L
4210  750 mt 4210  763 L
4235 2237 mt 4235 2223 L
4235  750 mt 4235  763 L
4235 2237 mt 4235 2210 L
4235  750 mt 4235  776 L
%%IncludeResource: font Helvetica
/Helvetica /WindowsLatin1Encoding 144 FMSR

4129 2449 mt 
(10) s
%%IncludeResource: font Helvetica
/Helvetica /WindowsLatin1Encoding 96 FMSR

4289 2360 mt 
(5) s
1603 2237 mt 1616 2237 L
4235 2237 mt 4221 2237 L
1603 2237 mt 1629 2237 L
4235 2237 mt 4208 2237 L
%%IncludeResource: font Helvetica
/Helvetica /WindowsLatin1Encoding 144 FMSR

1355 2290 mt 
(10) s
%%IncludeResource: font Helvetica
/Helvetica /WindowsLatin1Encoding 96 FMSR

1515 2201 mt 
(0) s
1603 2013 mt 1616 2013 L
4235 2013 mt 4221 2013 L
1603 1882 mt 1616 1882 L
4235 1882 mt 4221 1882 L
1603 1789 mt 1616 1789 L
4235 1789 mt 4221 1789 L
1603 1717 mt 1616 1717 L
4235 1717 mt 4221 1717 L
1603 1658 mt 1616 1658 L
4235 1658 mt 4221 1658 L
1603 1608 mt 1616 1608 L
4235 1608 mt 4221 1608 L
1603 1565 mt 1616 1565 L
4235 1565 mt 4221 1565 L
1603 1527 mt 1616 1527 L
4235 1527 mt 4221 1527 L
1603 1493 mt 1616 1493 L
4235 1493 mt 4221 1493 L
1603 1493 mt 1629 1493 L
4235 1493 mt 4208 1493 L
%%IncludeResource: font Helvetica
/Helvetica /WindowsLatin1Encoding 144 FMSR

1355 1546 mt 
(10) s
%%IncludeResource: font Helvetica
/Helvetica /WindowsLatin1Encoding 96 FMSR

1515 1457 mt 
(1) s
1603 1269 mt 1616 1269 L
4235 1269 mt 4221 1269 L
1603 1138 mt 1616 1138 L
4235 1138 mt 4221 1138 L
1603 1045 mt 1616 1045 L
4235 1045 mt 4221 1045 L
1603  973 mt 1616  973 L
4235  973 mt 4221  973 L
1603  914 mt 1616  914 L
4235  914 mt 4221  914 L
1603  865 mt 1616  865 L
4235  865 mt 4221  865 L
1603  822 mt 1616  822 L
4235  822 mt 4221  822 L
1603  784 mt 1616  784 L
4235  784 mt 4221  784 L
1603  750 mt 1616  750 L
4235  750 mt 4221  750 L
1603  750 mt 1629  750 L
4235  750 mt 4208  750 L
%%IncludeResource: font Helvetica
/Helvetica /WindowsLatin1Encoding 144 FMSR

1355  803 mt 
(10) s
%%IncludeResource: font Helvetica
/Helvetica /WindowsLatin1Encoding 96 FMSR

1515  714 mt 
(2) s
1603  750 mt 4235  750 L
1603 2237 mt 4235 2237 L
4235 2237 mt 4235  750 L
1603 2237 mt 1603  750 L
gs 1603 750 2633 1488 rc
24 w
/c8 { 1.000000 0.000000 0.000000 sr} bdef
c8
159 -93 158 -56 158 -52 159 -19 158 51 159 67 158 103 159 98 
158 105 57 28 2 4 2 -3 3 3 2 3 2 4 3 -3 
2 3 3 -3 2 4 3 3 2 4 3 3 3 -3 2 -3 
3 4 3 -3 2 4 3 4 3 4 3 -3 3 -11 3 4 
2 4 3 5 3 -4 4 5 3 -4 3 5 3 4 3 5 
4 4 3 -3 3 5 4 5 3 5 4 -3 3 -4 4 5 
4 6 3 5 4 -3 4 -3 4 5 4 6 4 -3 5 5 
4 7 4 6 5 -3 4 6 5 6 4 -2 5 6 5 7 
5 -3 5 8 6 -3 5 7 6 -2 5 -3 6 -3 6 8 
6 9 6 8 7 -14 6 -4 7 -17 7 -4 7 -5 8 -5 
8 -6 8 11 8 12 9 12 9 13 9 13 10 -4 10 15 
10 -23 12 -28 11 -7 13 -8 13 18 14 20 14 20 16 23 
17 -4 18 -5 20 -44 22 -13 24 -15 27 -21 31 -122 35 -81 
25 -1134 1987 2238 106 MP stroke
/c9 { 0.000000 1.000000 0.000000 sr} bdef
c9
34 34 158 165 159 165 158 180 159 170 158 183 159 173 158 134 
57 41 2 -4 2 -4 3 3 2 4 2 3 3 -4 2 4 
3 -4 2 3 3 4 2 4 3 3 3 -4 2 -4 3 4 
3 -4 2 4 3 4 3 4 3 4 3 4 3 4 2 4 
3 4 3 5 4 -13 3 5 3 -4 3 4 3 5 4 4 
3 5 3 5 4 5 3 5 4 5 3 -4 4 5 4 -4 
3 -4 4 -4 4 5 4 6 4 -4 4 6 5 6 4 6 
4 6 5 -4 4 6 5 7 4 6 5 7 5 7 5 7 
5 7 6 39 5 7 6 -23 5 8 6 -13 6 8 6 28 
6 9 7 -15 6 -47 7 -18 7 -6 7 42 8 -53 8 -6 
8 11 8 12 9 12 9 12 9 14 10 44 10 14 10 -23 
12 -27 11 -7 13 -9 13 -40 14 20 14 20 16 23 17 -7 
18 -8 20 20 22 -12 24 -16 27 -20 31 -122 35 -81 26 -1165 
1986 2238 105 MP stroke
/c10 { 0.000000 1.000000 1.000000 sr} bdef
c10
88 125 158 224 159 223 158 178 57 80 2 3 2 3 3 4 
2 3 2 3 3 4 2 3 3 4 2 3 3 4 2 3 
3 4 3 4 2 3 3 4 3 4 2 4 3 4 3 4 
3 4 3 4 3 4 2 4 3 4 3 5 4 4 3 -22 
3 5 3 4 3 5 4 5 3 4 3 5 4 5 3 5 
4 5 3 5 4 5 4 5 3 6 4 5 4 -22 4 5 
4 6 4 6 5 6 4 6 4 6 5 6 4 7 5 6 
4 -24 5 7 5 7 5 7 5 7 6 8 5 7 6 8 
5 8 6 8 6 8 6 9 6 9 7 9 6 9 7 10 
7 10 7 10 8 11 8 11 8 11 8 12 9 -22 9 -25 
9 -30 10 13 10 -35 10 15 12 16 11 16 13 18 13 18 
14 -39 14 -51 16 22 17 24 18 26 20 28 22 31 24 34 
27 38 31 43 35 -43 42 59 51 -59 65 93 93 -93 103 -1265 
1658 2238 105 MP stroke
0 sg
141 184 158 185 159 224 158 181 57 30 2 3 2 3 3 4 
2 3 2 3 3 4 2 3 3 4 2 3 3 4 2 3 
3 4 3 4 2 4 3 3 3 4 2 4 3 4 3 4 
3 4 3 4 3 4 2 4 3 4 3 5 4 4 3 35 
3 5 3 4 3 5 4 -54 3 4 3 5 4 5 3 5 
4 -26 3 5 4 -29 4 -32 3 5 4 5 4 6 4 -38 
4 6 4 6 5 6 4 6 4 6 5 6 4 7 5 6 
4 7 5 7 5 7 5 7 5 7 6 7 5 8 6 8 
5 8 6 8 6 8 6 -41 6 9 7 9 6 9 7 10 
7 10 7 10 8 11 8 11 8 11 8 12 9 12 9 13 
9 13 10 -45 10 14 10 15 12 16 11 -56 13 -75 13 -113 
14 20 14 21 16 -202 17 24 18 26 10 -686 2161 2238 95 MP stroke
DA
/c11 { 0.000000 0.000000 1.000000 sr} bdef
c11
4 6 159 203 158 207 159 192 158 177 159 176 158 160 57 38 
2 -6 2 -6 3 3 2 3 2 4 3 -7 2 4 3 -6 
2 3 3 4 2 3 3 4 3 4 2 3 3 4 3 -6 
2 3 3 4 3 -6 3 4 3 4 3 4 2 4 3 4 
3 5 4 4 3 4 3 -6 3 4 3 5 4 5 3 4 
3 5 4 5 3 5 4 5 3 5 4 -6 4 5 3 5 
4 6 4 5 4 6 4 6 4 6 5 5 4 6 4 7 
5 6 4 6 5 7 4 -5 5 7 5 6 5 -5 5 8 
6 7 5 8 6 7 5 8 6 9 6 8 6 -17 6 9 
7 9 6 -5 7 41 7 -5 7 26 8 -51 8 11 8 -4 
8 26 9 -5 9 -57 9 -30 10 -36 10 -44 10 -19 12 16 
11 -22 13 18 13 -25 14 20 14 20 16 -27 17 -76 18 -98 
20 -103 22 31 24 34 27 38 31 43 35 -174 42 59 51 72 
65 93 93 161 107 -1295 1654 2238 108 MP stroke
gr

24 w
c11
DA
0 sg
%%IncludeResource: font Helvetica
/Helvetica /WindowsLatin1Encoding 144 FMSR

2649  636 mt 
(Chi) s
%%IncludeResource: font Helvetica
/Helvetica /WindowsLatin1Encoding 108 FMSR

2865  564 mt 
(2) s
%%IncludeResource: font Helvetica
/Helvetica /WindowsLatin1Encoding 144 FMSR

2925  636 mt 
( vs. ) s
1268 1946 mt  -90 rotate
(intersection %) s
90 rotate
2391 2610 mt 
(sorted list length) s
SO
6 w
1 sg
0 1487 2631 0 0 -1487 5066 2237 4 MP
PP
-2631 0 0 1487 2631 0 0 -1487 5066 2237 5 MP stroke
4 w
DO
SO
6 w
0 sg
5066  750 mt 7697  750 L
5066 2237 mt 7697 2237 L
7697 2237 mt 7697  750 L
5066 2237 mt 5066  750 L
5066 2237 mt 7697 2237 L
5066 2237 mt 5066  750 L
5066 2237 mt 5066 2223 L
5066  750 mt 5066  763 L
5066 2237 mt 5066 2210 L
5066  750 mt 5066  776 L
4960 2449 mt 
(10) s
%%IncludeResource: font Helvetica
/Helvetica /WindowsLatin1Encoding 96 FMSR

5120 2360 mt 
(0) s
5224 2237 mt 5224 2223 L
5224  750 mt 5224  763 L
5317 2237 mt 5317 2223 L
5317  750 mt 5317  763 L
5382 2237 mt 5382 2223 L
5382  750 mt 5382  763 L
5433 2237 mt 5433 2223 L
5433  750 mt 5433  763 L
5475 2237 mt 5475 2223 L
5475  750 mt 5475  763 L
5510 2237 mt 5510 2223 L
5510  750 mt 5510  763 L
5541 2237 mt 5541 2223 L
5541  750 mt 5541  763 L
5568 2237 mt 5568 2223 L
5568  750 mt 5568  763 L
5592 2237 mt 5592 2223 L
5592  750 mt 5592  763 L
5592 2237 mt 5592 2210 L
5592  750 mt 5592  776 L
%%IncludeResource: font Helvetica
/Helvetica /WindowsLatin1Encoding 144 FMSR

5486 2449 mt 
(10) s
%%IncludeResource: font Helvetica
/Helvetica /WindowsLatin1Encoding 96 FMSR

5646 2360 mt 
(1) s
5750 2237 mt 5750 2223 L
5750  750 mt 5750  763 L
5843 2237 mt 5843 2223 L
5843  750 mt 5843  763 L
5909 2237 mt 5909 2223 L
5909  750 mt 5909  763 L
5959 2237 mt 5959 2223 L
5959  750 mt 5959  763 L
6001 2237 mt 6001 2223 L
6001  750 mt 6001  763 L
6036 2237 mt 6036 2223 L
6036  750 mt 6036  763 L
6067 2237 mt 6067 2223 L
6067  750 mt 6067  763 L
6094 2237 mt 6094 2223 L
6094  750 mt 6094  763 L
6118 2237 mt 6118 2223 L
6118  750 mt 6118  763 L
6118 2237 mt 6118 2210 L
6118  750 mt 6118  776 L
%%IncludeResource: font Helvetica
/Helvetica /WindowsLatin1Encoding 144 FMSR

6012 2449 mt 
(10) s
%%IncludeResource: font Helvetica
/Helvetica /WindowsLatin1Encoding 96 FMSR

6172 2360 mt 
(2) s
6276 2237 mt 6276 2223 L
6276  750 mt 6276  763 L
6369 2237 mt 6369 2223 L
6369  750 mt 6369  763 L
6435 2237 mt 6435 2223 L
6435  750 mt 6435  763 L
6486 2237 mt 6486 2223 L
6486  750 mt 6486  763 L
6527 2237 mt 6527 2223 L
6527  750 mt 6527  763 L
6563 2237 mt 6563 2223 L
6563  750 mt 6563  763 L
6593 2237 mt 6593 2223 L
6593  750 mt 6593  763 L
6620 2237 mt 6620 2223 L
6620  750 mt 6620  763 L
6644 2237 mt 6644 2223 L
6644  750 mt 6644  763 L
6644 2237 mt 6644 2210 L
6644  750 mt 6644  776 L
%%IncludeResource: font Helvetica
/Helvetica /WindowsLatin1Encoding 144 FMSR

6538 2449 mt 
(10) s
%%IncludeResource: font Helvetica
/Helvetica /WindowsLatin1Encoding 96 FMSR

6698 2360 mt 
(3) s
6803 2237 mt 6803 2223 L
6803  750 mt 6803  763 L
6895 2237 mt 6895 2223 L
6895  750 mt 6895  763 L
6961 2237 mt 6961 2223 L
6961  750 mt 6961  763 L
7012 2237 mt 7012 2223 L
7012  750 mt 7012  763 L
7054 2237 mt 7054 2223 L
7054  750 mt 7054  763 L
7089 2237 mt 7089 2223 L
7089  750 mt 7089  763 L
7119 2237 mt 7119 2223 L
7119  750 mt 7119  763 L
7146 2237 mt 7146 2223 L
7146  750 mt 7146  763 L
7170 2237 mt 7170 2223 L
7170  750 mt 7170  763 L
7170 2237 mt 7170 2210 L
7170  750 mt 7170  776 L
%%IncludeResource: font Helvetica
/Helvetica /WindowsLatin1Encoding 144 FMSR

7064 2449 mt 
(10) s
%%IncludeResource: font Helvetica
/Helvetica /WindowsLatin1Encoding 96 FMSR

7224 2360 mt 
(4) s
7329 2237 mt 7329 2223 L
7329  750 mt 7329  763 L
7421 2237 mt 7421 2223 L
7421  750 mt 7421  763 L
7487 2237 mt 7487 2223 L
7487  750 mt 7487  763 L
7538 2237 mt 7538 2223 L
7538  750 mt 7538  763 L
7580 2237 mt 7580 2223 L
7580  750 mt 7580  763 L
7615 2237 mt 7615 2223 L
7615  750 mt 7615  763 L
7646 2237 mt 7646 2223 L
7646  750 mt 7646  763 L
7672 2237 mt 7672 2223 L
7672  750 mt 7672  763 L
7697 2237 mt 7697 2223 L
7697  750 mt 7697  763 L
7697 2237 mt 7697 2210 L
7697  750 mt 7697  776 L
%%IncludeResource: font Helvetica
/Helvetica /WindowsLatin1Encoding 144 FMSR

7591 2449 mt 
(10) s
%%IncludeResource: font Helvetica
/Helvetica /WindowsLatin1Encoding 96 FMSR

7751 2360 mt 
(5) s
5066 2237 mt 5079 2237 L
7697 2237 mt 7683 2237 L
5066 2237 mt 5092 2237 L
7697 2237 mt 7670 2237 L
%%IncludeResource: font Helvetica
/Helvetica /WindowsLatin1Encoding 144 FMSR

4818 2290 mt 
(10) s
%%IncludeResource: font Helvetica
/Helvetica /WindowsLatin1Encoding 96 FMSR

4978 2201 mt 
(0) s
5066 2013 mt 5079 2013 L
7697 2013 mt 7683 2013 L
5066 1882 mt 5079 1882 L
7697 1882 mt 7683 1882 L
5066 1789 mt 5079 1789 L
7697 1789 mt 7683 1789 L
5066 1717 mt 5079 1717 L
7697 1717 mt 7683 1717 L
5066 1658 mt 5079 1658 L
7697 1658 mt 7683 1658 L
5066 1608 mt 5079 1608 L
7697 1608 mt 7683 1608 L
5066 1565 mt 5079 1565 L
7697 1565 mt 7683 1565 L
5066 1527 mt 5079 1527 L
7697 1527 mt 7683 1527 L
5066 1493 mt 5079 1493 L
7697 1493 mt 7683 1493 L
5066 1493 mt 5092 1493 L
7697 1493 mt 7670 1493 L
%%IncludeResource: font Helvetica
/Helvetica /WindowsLatin1Encoding 144 FMSR

4818 1546 mt 
(10) s
%%IncludeResource: font Helvetica
/Helvetica /WindowsLatin1Encoding 96 FMSR

4978 1457 mt 
(1) s
5066 1269 mt 5079 1269 L
7697 1269 mt 7683 1269 L
5066 1138 mt 5079 1138 L
7697 1138 mt 7683 1138 L
5066 1045 mt 5079 1045 L
7697 1045 mt 7683 1045 L
5066  973 mt 5079  973 L
7697  973 mt 7683  973 L
5066  914 mt 5079  914 L
7697  914 mt 7683  914 L
5066  865 mt 5079  865 L
7697  865 mt 7683  865 L
5066  822 mt 5079  822 L
7697  822 mt 7683  822 L
5066  784 mt 5079  784 L
7697  784 mt 7683  784 L
5066  750 mt 5079  750 L
7697  750 mt 7683  750 L
5066  750 mt 5092  750 L
7697  750 mt 7670  750 L
%%IncludeResource: font Helvetica
/Helvetica /WindowsLatin1Encoding 144 FMSR

4818  803 mt 
(10) s
%%IncludeResource: font Helvetica
/Helvetica /WindowsLatin1Encoding 96 FMSR

4978  714 mt 
(2) s
5066  750 mt 7697  750 L
5066 2237 mt 7697 2237 L
7697 2237 mt 7697  750 L
5066 2237 mt 5066  750 L
gs 5066 750 2632 1488 rc
24 w
c11
158 -93 159 -56 158 -52 159 -19 158 51 158 67 159 103 158 98 
159 105 56 28 2 4 3 -3 2 3 2 3 3 4 2 -3 
3 3 2 -3 3 4 2 3 3 4 2 3 3 -3 3 -3 
2 4 3 -3 3 4 2 4 3 4 3 -3 3 -11 3 4 
3 4 3 5 3 -4 3 5 3 -4 3 5 3 4 4 5 
3 4 3 -3 4 5 3 5 4 5 3 -3 4 -4 3 5 
4 6 4 5 4 -3 4 -3 4 5 4 6 4 -3 4 5 
4 7 5 6 4 -3 5 6 4 6 5 -2 5 6 5 7 
5 -3 5 8 5 -3 5 7 6 -2 5 -3 6 -3 6 8 
6 9 7 8 6 -14 7 -4 6 -17 7 -4 8 -5 7 -5 
8 -6 8 11 8 12 9 12 9 13 9 13 10 -4 10 15 
11 -23 11 -28 12 -7 12 -8 13 18 14 20 15 20 15 23 
17 -4 19 -5 20 -44 21 -13 24 -15 27 -21 31 -122 35 -81 
25 -1134 5450 2238 106 MP stroke
c9
79 80 158 165 159 137 158 162 158 159 159 190 158 186 159 201 
56 21 2 4 3 3 2 3 2 -2 3 3 2 3 3 -2 
2 3 3 4 2 -2 3 3 2 4 3 3 3 -2 2 -2 
3 3 3 -2 2 4 3 4 3 -3 3 4 3 -2 3 4 
3 -3 3 -9 3 -3 3 -3 3 4 3 5 4 4 3 5 
3 5 4 4 3 -2 4 4 3 -2 4 -3 3 5 4 -3 
4 28 4 -3 4 -26 4 6 4 28 4 -4 4 -34 4 6 
5 6 4 37 5 -34 4 7 5 37 5 7 5 7 5 -24 
5 8 5 7 5 -2 6 7 5 -2 6 -2 6 8 6 9 
7 9 6 -14 7 -2 6 -2 7 -3 8 10 7 -3 8 -2 
8 11 8 12 9 12 9 13 9 -2 10 14 10 14 11 -15 
11 -1 12 -1 12 -1 13 -1 14 -1 15 -2 15 -1 17 -2 
19 -3 20 28 21 0 24 0 27 0 31 0 35 0 42 0 
51 0 65 0 93 0 158 0 5066 750 109 MP stroke
c10
19 25 159 193 158 223 159 152 56 80 2 3 3 3 2 4 
2 3 3 4 2 3 3 3 2 4 3 3 2 4 3 4 
2 3 3 4 3 4 2 3 3 4 3 4 2 4 3 4 
3 4 3 4 3 4 3 4 3 5 3 4 3 4 3 -39 
3 5 3 4 4 5 3 5 3 4 4 5 3 5 4 5 
3 5 4 5 3 5 4 5 4 6 4 5 4 -44 4 6 
4 5 4 6 4 6 4 6 5 6 4 6 5 7 4 6 
5 7 5 7 5 7 5 7 5 7 5 8 5 7 6 8 
5 8 6 8 6 8 6 9 7 9 6 9 7 9 6 10 
7 10 8 10 7 11 8 11 8 11 8 12 9 12 9 13 
9 13 10 -45 10 14 11 -57 11 -77 12 16 12 18 13 18 
14 20 15 21 15 22 17 24 19 26 20 28 21 31 24 34 
27 38 31 -88 35 -174 23 -910 5452 2238 101 MP stroke
0 sg
87 125 159 177 158 67 159 131 56 80 2 3 3 4 2 3 
2 3 3 4 2 3 3 3 2 4 3 4 2 3 3 4 
2 3 3 4 3 4 2 4 3 3 3 4 2 4 3 4 
3 -55 3 -68 3 4 3 5 3 4 3 -89 3 4 3 5 
3 4 3 5 4 4 3 5 3 5 4 5 3 4 4 5 
3 -126 4 6 3 5 4 5 4 5 4 6 4 5 4 6 
4 6 4 5 4 6 4 6 5 6 4 7 5 6 4 7 
5 6 5 7 5 7 5 7 5 7 5 8 5 7 6 8 
5 8 6 8 6 9 6 8 7 9 6 9 7 10 6 9 
7 10 8 10 7 11 8 11 8 11 8 12 9 12 9 13 
9 13 10 14 10 14 11 15 11 16 12 -207 12 17 13 19 
14 19 15 21 15 22 17 24 19 26 20 28 21 31 24 34 
14 -779 5554 2238 98 MP stroke
DA
c11
121 160 158 199 158 185 159 200 158 183 159 186 56 63 2 3 
3 4 2 3 2 -5 3 3 2 3 3 -5 2 4 3 3 
2 -5 3 3 2 4 3 3 3 -5 2 -6 3 4 3 -6 
2 4 3 -7 3 -6 3 4 3 -7 3 4 3 4 3 -7 
3 -7 3 -8 3 5 3 4 4 5 3 4 3 5 4 5 
3 -8 4 5 3 -8 4 5 3 -9 4 6 4 5 4 -9 
4 5 4 6 4 6 4 -9 4 6 4 -10 5 6 4 6 
5 7 4 6 5 7 5 7 5 7 5 -10 5 7 5 8 
5 7 6 8 5 8 6 8 6 9 6 -9 7 9 6 -10 
7 -10 6 -33 7 -14 8 -16 7 11 8 11 8 11 8 12 
9 12 9 -16 9 -17 10 -58 10 -29 11 -35 11 16 12 -43 
12 18 13 18 14 20 15 21 15 22 17 -48 19 26 20 28 
21 -31 24 -128 27 -186 17 -817 5524 2238 101 MP stroke
gr

24 w
c11
DA
0 sg
%%IncludeResource: font Helvetica
/Helvetica /WindowsLatin1Encoding 144 FMSR

6158  636 mt 
(SS vs. ) s
4731 1946 mt  -90 rotate
(intersection %) s
90 rotate
5853 2610 mt 
(sorted list length) s
SO
6 w
1 sg
0 1487 2632 0 0 -1487 8528 2237 4 MP
PP
-2632 0 0 1487 2632 0 0 -1487 8528 2237 5 MP stroke
4 w
DO
SO
6 w
0 sg
8528  750 mt 11160  750 L
8528 2237 mt 11160 2237 L
11160 2237 mt 11160  750 L
8528 2237 mt 8528  750 L
8528 2237 mt 11160 2237 L
8528 2237 mt 8528  750 L
8528 2237 mt 8528 2223 L
8528  750 mt 8528  763 L
8528 2237 mt 8528 2210 L
8528  750 mt 8528  776 L
8422 2449 mt 
(10) s
%%IncludeResource: font Helvetica
/Helvetica /WindowsLatin1Encoding 96 FMSR

8582 2360 mt 
(0) s
8686 2237 mt 8686 2223 L
8686  750 mt 8686  763 L
8779 2237 mt 8779 2223 L
8779  750 mt 8779  763 L
8844 2237 mt 8844 2223 L
8844  750 mt 8844  763 L
8895 2237 mt 8895 2223 L
8895  750 mt 8895  763 L
8937 2237 mt 8937 2223 L
8937  750 mt 8937  763 L
8972 2237 mt 8972 2223 L
8972  750 mt 8972  763 L
9003 2237 mt 9003 2223 L
9003  750 mt 9003  763 L
9030 2237 mt 9030 2223 L
9030  750 mt 9030  763 L
9054 2237 mt 9054 2223 L
9054  750 mt 9054  763 L
9054 2237 mt 9054 2210 L
9054  750 mt 9054  776 L
%%IncludeResource: font Helvetica
/Helvetica /WindowsLatin1Encoding 144 FMSR

8948 2449 mt 
(10) s
%%IncludeResource: font Helvetica
/Helvetica /WindowsLatin1Encoding 96 FMSR

9108 2360 mt 
(1) s
9212 2237 mt 9212 2223 L
9212  750 mt 9212  763 L
9305 2237 mt 9305 2223 L
9305  750 mt 9305  763 L
9371 2237 mt 9371 2223 L
9371  750 mt 9371  763 L
9422 2237 mt 9422 2223 L
9422  750 mt 9422  763 L
9464 2237 mt 9464 2223 L
9464  750 mt 9464  763 L
9499 2237 mt 9499 2223 L
9499  750 mt 9499  763 L
9529 2237 mt 9529 2223 L
9529  750 mt 9529  763 L
9556 2237 mt 9556 2223 L
9556  750 mt 9556  763 L
9580 2237 mt 9580 2223 L
9580  750 mt 9580  763 L
9580 2237 mt 9580 2210 L
9580  750 mt 9580  776 L
%%IncludeResource: font Helvetica
/Helvetica /WindowsLatin1Encoding 144 FMSR

9474 2449 mt 
(10) s
%%IncludeResource: font Helvetica
/Helvetica /WindowsLatin1Encoding 96 FMSR

9634 2360 mt 
(2) s
9739 2237 mt 9739 2223 L
9739  750 mt 9739  763 L
9831 2237 mt 9831 2223 L
9831  750 mt 9831  763 L
9897 2237 mt 9897 2223 L
9897  750 mt 9897  763 L
9948 2237 mt 9948 2223 L
9948  750 mt 9948  763 L
9990 2237 mt 9990 2223 L
9990  750 mt 9990  763 L
10025 2237 mt 10025 2223 L
10025  750 mt 10025  763 L
10056 2237 mt 10056 2223 L
10056  750 mt 10056  763 L
10083 2237 mt 10083 2223 L
10083  750 mt 10083  763 L
10107 2237 mt 10107 2223 L
10107  750 mt 10107  763 L
10107 2237 mt 10107 2210 L
10107  750 mt 10107  776 L
%%IncludeResource: font Helvetica
/Helvetica /WindowsLatin1Encoding 144 FMSR

10001 2449 mt 
(10) s
%%IncludeResource: font Helvetica
/Helvetica /WindowsLatin1Encoding 96 FMSR

10161 2360 mt 
(3) s
10265 2237 mt 10265 2223 L
10265  750 mt 10265  763 L
10358 2237 mt 10358 2223 L
10358  750 mt 10358  763 L
10424 2237 mt 10424 2223 L
10424  750 mt 10424  763 L
10475 2237 mt 10475 2223 L
10475  750 mt 10475  763 L
10516 2237 mt 10516 2223 L
10516  750 mt 10516  763 L
10552 2237 mt 10552 2223 L
10552  750 mt 10552  763 L
10582 2237 mt 10582 2223 L
10582  750 mt 10582  763 L
10609 2237 mt 10609 2223 L
10609  750 mt 10609  763 L
10633 2237 mt 10633 2223 L
10633  750 mt 10633  763 L
10633 2237 mt 10633 2210 L
10633  750 mt 10633  776 L
%%IncludeResource: font Helvetica
/Helvetica /WindowsLatin1Encoding 144 FMSR

10527 2449 mt 
(10) s
%%IncludeResource: font Helvetica
/Helvetica /WindowsLatin1Encoding 96 FMSR

10687 2360 mt 
(4) s
10792 2237 mt 10792 2223 L
10792  750 mt 10792  763 L
10884 2237 mt 10884 2223 L
10884  750 mt 10884  763 L
10950 2237 mt 10950 2223 L
10950  750 mt 10950  763 L
11001 2237 mt 11001 2223 L
11001  750 mt 11001  763 L
11043 2237 mt 11043 2223 L
11043  750 mt 11043  763 L
11078 2237 mt 11078 2223 L
11078  750 mt 11078  763 L
11108 2237 mt 11108 2223 L
11108  750 mt 11108  763 L
11135 2237 mt 11135 2223 L
11135  750 mt 11135  763 L
11160 2237 mt 11160 2223 L
11160  750 mt 11160  763 L
11160 2237 mt 11160 2210 L
11160  750 mt 11160  776 L
%%IncludeResource: font Helvetica
/Helvetica /WindowsLatin1Encoding 144 FMSR

11054 2449 mt 
(10) s
%%IncludeResource: font Helvetica
/Helvetica /WindowsLatin1Encoding 96 FMSR

11214 2360 mt 
(5) s
8528 2237 mt 8541 2237 L
11160 2237 mt 11146 2237 L
8528 2237 mt 8554 2237 L
11160 2237 mt 11133 2237 L
%%IncludeResource: font Helvetica
/Helvetica /WindowsLatin1Encoding 144 FMSR

8280 2290 mt 
(10) s
%%IncludeResource: font Helvetica
/Helvetica /WindowsLatin1Encoding 96 FMSR

8440 2201 mt 
(0) s
8528 2013 mt 8541 2013 L
11160 2013 mt 11146 2013 L
8528 1882 mt 8541 1882 L
11160 1882 mt 11146 1882 L
8528 1789 mt 8541 1789 L
11160 1789 mt 11146 1789 L
8528 1717 mt 8541 1717 L
11160 1717 mt 11146 1717 L
8528 1658 mt 8541 1658 L
11160 1658 mt 11146 1658 L
8528 1608 mt 8541 1608 L
11160 1608 mt 11146 1608 L
8528 1565 mt 8541 1565 L
11160 1565 mt 11146 1565 L
8528 1527 mt 8541 1527 L
11160 1527 mt 11146 1527 L
8528 1493 mt 8541 1493 L
11160 1493 mt 11146 1493 L
8528 1493 mt 8554 1493 L
11160 1493 mt 11133 1493 L
%%IncludeResource: font Helvetica
/Helvetica /WindowsLatin1Encoding 144 FMSR

8280 1546 mt 
(10) s
%%IncludeResource: font Helvetica
/Helvetica /WindowsLatin1Encoding 96 FMSR

8440 1457 mt 
(1) s
8528 1269 mt 8541 1269 L
11160 1269 mt 11146 1269 L
8528 1138 mt 8541 1138 L
11160 1138 mt 11146 1138 L
8528 1045 mt 8541 1045 L
11160 1045 mt 11146 1045 L
8528  973 mt 8541  973 L
11160  973 mt 11146  973 L
8528  914 mt 8541  914 L
11160  914 mt 11146  914 L
8528  865 mt 8541  865 L
11160  865 mt 11146  865 L
8528  822 mt 8541  822 L
11160  822 mt 11146  822 L
8528  784 mt 8541  784 L
11160  784 mt 11146  784 L
8528  750 mt 8541  750 L
11160  750 mt 11146  750 L
8528  750 mt 8554  750 L
11160  750 mt 11133  750 L
%%IncludeResource: font Helvetica
/Helvetica /WindowsLatin1Encoding 144 FMSR

8280  803 mt 
(10) s
%%IncludeResource: font Helvetica
/Helvetica /WindowsLatin1Encoding 96 FMSR

8440  714 mt 
(2) s
8528  750 mt 11160  750 L
8528 2237 mt 11160 2237 L
11160 2237 mt 11160  750 L
8528 2237 mt 8528  750 L
gs 8528 750 2633 1488 rc
24 w
c11
34 34 158 165 159 165 158 180 159 170 158 183 159 173 158 134 
57 41 2 -4 2 -4 3 3 2 4 2 3 3 -4 2 4 
3 -4 2 3 3 4 2 4 3 3 3 -4 2 -4 3 4 
3 -4 2 4 3 4 3 4 3 4 3 4 3 4 2 4 
3 4 3 5 4 -13 3 5 3 -4 3 4 3 5 4 4 
3 5 3 5 4 5 3 5 4 5 3 -4 4 5 4 -4 
3 -4 4 -4 4 5 4 6 4 -4 4 6 5 6 4 6 
4 6 5 -4 4 6 5 7 4 6 5 7 5 7 5 7 
5 7 6 8 5 7 6 8 5 8 6 -13 6 8 6 -2 
6 8 7 -14 6 -17 7 -18 7 -6 7 11 8 -22 8 -6 
8 11 8 12 9 12 9 12 9 14 10 13 10 15 10 -23 
12 -28 11 -7 13 -8 13 -10 14 20 14 20 16 23 17 -7 
18 -8 20 -10 22 -13 24 -15 27 -21 31 -122 35 -81 25 -1134 
8912 2238 105 MP stroke
c8
79 80 158 165 159 137 158 193 159 128 158 190 159 186 158 170 
57 52 2 4 2 3 3 3 2 -2 2 3 3 3 2 -2 
3 3 2 4 3 -2 2 3 3 4 3 3 2 -2 3 -2 
3 3 2 -2 3 4 3 4 3 -3 3 4 3 -2 2 4 
3 -3 3 -9 4 -3 3 -3 3 4 3 5 3 4 4 5 
3 5 3 4 4 -2 3 4 4 -2 3 -3 4 5 4 -3 
3 -3 4 -3 4 5 4 6 4 -3 4 -3 5 -4 4 6 
4 6 5 7 4 -4 5 7 4 7 5 6 5 7 5 7 
5 8 6 7 5 -2 6 7 5 29 6 -33 6 8 6 9 
6 9 7 -14 6 -2 7 -2 7 -3 7 10 8 -3 8 -2 
8 11 8 12 9 12 9 13 9 -2 10 14 10 14 10 -15 
12 -1 11 -1 13 -1 13 -1 14 -1 14 -2 16 -1 17 -2 
18 -3 20 28 22 0 24 0 27 0 31 0 35 0 42 0 
51 0 65 0 93 0 158 0 8528 750 109 MP stroke
c10
159 -24 158 -14 158 -24 159 -19 158 7 159 -27 158 -15 159 193 
158 152 57 80 2 3 2 3 3 4 2 3 2 4 3 3 
2 3 3 4 2 3 3 4 2 4 3 3 3 4 2 4 
3 3 3 4 2 4 3 4 3 4 3 4 3 4 3 4 
2 4 3 5 3 4 4 4 3 -39 3 5 3 4 3 5 
4 5 3 4 3 5 4 5 3 5 4 5 3 5 4 5 
4 -44 3 5 4 5 4 6 4 6 4 5 4 6 5 6 
4 6 4 6 5 6 4 7 5 6 4 7 5 7 5 7 
5 7 5 7 6 8 5 7 6 8 5 8 6 8 6 8 
6 9 6 9 7 9 6 9 7 10 7 10 7 10 8 -48 
8 11 8 11 8 12 9 12 9 13 9 13 10 14 10 14 
10 -57 12 16 11 -77 13 18 13 18 14 20 14 21 16 22 
17 24 18 26 20 28 22 31 24 34 27 38 31 -88 35 -174 
23 -910 8914 2238 106 MP stroke
0 sg
159 -9 158 -13 158 -21 159 -12 158 -14 159 18 158 40 159 16 
158 -187 57 -63 2 3 2 4 3 3 2 3 2 4 3 3 
2 3 3 4 2 3 3 4 2 -4 3 4 3 4 2 3 
3 4 3 4 2 4 3 4 3 4 3 4 3 4 3 4 
2 4 3 4 3 5 4 -70 3 35 3 5 3 4 3 5 
4 4 3 -75 3 -55 4 5 3 5 4 5 3 5 4 6 
4 5 3 5 4 6 4 5 4 6 4 5 4 6 5 6 
4 6 4 6 5 -65 4 6 5 6 4 7 5 7 5 7 
5 7 5 7 6 8 5 7 6 8 5 8 6 -85 6 9 
6 -123 6 9 7 9 6 10 7 9 7 10 7 10 8 11 
8 11 8 11 8 12 9 12 9 13 9 13 10 14 10 14 
10 15 12 16 11 17 13 17 13 -205 14 19 14 21 16 22 
17 24 18 26 20 28 22 31 24 34 14 -779 9016 2238 103 MP stroke
DA
c11
159 4 158 6 158 9 159 14 158 -6 159 19 158 39 159 39 
158 20 57 38 2 3 2 3 3 4 2 3 2 3 3 4 
2 3 3 4 2 3 3 4 2 -3 3 3 3 4 2 4 
3 4 3 3 2 4 3 4 3 -9 3 4 3 4 3 4 
2 4 3 35 3 -26 4 -3 3 4 3 5 3 -3 3 5 
4 4 3 -2 3 28 4 -26 3 5 4 -3 3 6 4 -3 
4 5 3 6 4 5 4 5 4 -10 4 6 4 -3 5 -3 
4 -11 4 6 5 27 4 -44 5 7 4 27 5 -34 5 -4 
5 -16 5 -5 6 -6 5 8 6 -5 5 -6 6 -6 6 8 
6 -22 6 -8 7 -27 6 -10 7 -33 7 -14 7 -16 8 -17 
8 10 8 12 8 12 9 12 9 -18 9 -21 10 -24 10 -29 
10 15 12 16 11 -34 13 -41 13 -54 14 20 14 21 16 22 
17 24 18 26 20 28 22 -31 24 -128 27 -186 16 -817 8987 2238 104 MP stroke
gr

24 w
c11
DA
0 sg
%%IncludeResource: font Helvetica
/Helvetica /WindowsLatin1Encoding 144 FMSR

9568  636 mt 
(DSS vs. ) s
8193 1946 mt  -90 rotate
(intersection %) s
90 rotate
9316 2610 mt 
(sorted list length) s
SO
6 w
1 sg
0 1488 2632 0 0 -1488 1603 4760 4 MP
PP
-2632 0 0 1488 2632 0 0 -1488 1603 4760 5 MP stroke
4 w
DO
SO
6 w
0 sg
1603 3272 mt 4235 3272 L
1603 4760 mt 4235 4760 L
4235 4760 mt 4235 3272 L
1603 4760 mt 1603 3272 L
1603 4760 mt 4235 4760 L
1603 4760 mt 1603 3272 L
1603 4760 mt 1603 4746 L
1603 3272 mt 1603 3285 L
1603 4760 mt 1603 4733 L
1603 3272 mt 1603 3298 L
1497 4972 mt 
(10) s
%%IncludeResource: font Helvetica
/Helvetica /WindowsLatin1Encoding 96 FMSR

1657 4883 mt 
(0) s
1761 4760 mt 1761 4746 L
1761 3272 mt 1761 3285 L
1854 4760 mt 1854 4746 L
1854 3272 mt 1854 3285 L
1919 4760 mt 1919 4746 L
1919 3272 mt 1919 3285 L
1970 4760 mt 1970 4746 L
1970 3272 mt 1970 3285 L
2012 4760 mt 2012 4746 L
2012 3272 mt 2012 3285 L
2047 4760 mt 2047 4746 L
2047 3272 mt 2047 3285 L
2078 4760 mt 2078 4746 L
2078 3272 mt 2078 3285 L
2105 4760 mt 2105 4746 L
2105 3272 mt 2105 3285 L
2129 4760 mt 2129 4746 L
2129 3272 mt 2129 3285 L
2129 4760 mt 2129 4733 L
2129 3272 mt 2129 3298 L
%%IncludeResource: font Helvetica
/Helvetica /WindowsLatin1Encoding 144 FMSR

2023 4972 mt 
(10) s
%%IncludeResource: font Helvetica
/Helvetica /WindowsLatin1Encoding 96 FMSR

2183 4883 mt 
(1) s
2287 4760 mt 2287 4746 L
2287 3272 mt 2287 3285 L
2380 4760 mt 2380 4746 L
2380 3272 mt 2380 3285 L
2446 4760 mt 2446 4746 L
2446 3272 mt 2446 3285 L
2497 4760 mt 2497 4746 L
2497 3272 mt 2497 3285 L
2539 4760 mt 2539 4746 L
2539 3272 mt 2539 3285 L
2574 4760 mt 2574 4746 L
2574 3272 mt 2574 3285 L
2604 4760 mt 2604 4746 L
2604 3272 mt 2604 3285 L
2631 4760 mt 2631 4746 L
2631 3272 mt 2631 3285 L
2655 4760 mt 2655 4746 L
2655 3272 mt 2655 3285 L
2655 4760 mt 2655 4733 L
2655 3272 mt 2655 3298 L
%%IncludeResource: font Helvetica
/Helvetica /WindowsLatin1Encoding 144 FMSR

2549 4972 mt 
(10) s
%%IncludeResource: font Helvetica
/Helvetica /WindowsLatin1Encoding 96 FMSR

2709 4883 mt 
(2) s
2814 4760 mt 2814 4746 L
2814 3272 mt 2814 3285 L
2906 4760 mt 2906 4746 L
2906 3272 mt 2906 3285 L
2972 4760 mt 2972 4746 L
2972 3272 mt 2972 3285 L
3023 4760 mt 3023 4746 L
3023 3272 mt 3023 3285 L
3065 4760 mt 3065 4746 L
3065 3272 mt 3065 3285 L
3100 4760 mt 3100 4746 L
3100 3272 mt 3100 3285 L
3131 4760 mt 3131 4746 L
3131 3272 mt 3131 3285 L
3158 4760 mt 3158 4746 L
3158 3272 mt 3158 3285 L
3182 4760 mt 3182 4746 L
3182 3272 mt 3182 3285 L
3182 4760 mt 3182 4733 L
3182 3272 mt 3182 3298 L
%%IncludeResource: font Helvetica
/Helvetica /WindowsLatin1Encoding 144 FMSR

3076 4972 mt 
(10) s
%%IncludeResource: font Helvetica
/Helvetica /WindowsLatin1Encoding 96 FMSR

3236 4883 mt 
(3) s
3340 4760 mt 3340 4746 L
3340 3272 mt 3340 3285 L
3433 4760 mt 3433 4746 L
3433 3272 mt 3433 3285 L
3499 4760 mt 3499 4746 L
3499 3272 mt 3499 3285 L
3550 4760 mt 3550 4746 L
3550 3272 mt 3550 3285 L
3591 4760 mt 3591 4746 L
3591 3272 mt 3591 3285 L
3627 4760 mt 3627 4746 L
3627 3272 mt 3627 3285 L
3657 4760 mt 3657 4746 L
3657 3272 mt 3657 3285 L
3684 4760 mt 3684 4746 L
3684 3272 mt 3684 3285 L
3708 4760 mt 3708 4746 L
3708 3272 mt 3708 3285 L
3708 4760 mt 3708 4733 L
3708 3272 mt 3708 3298 L
%%IncludeResource: font Helvetica
/Helvetica /WindowsLatin1Encoding 144 FMSR

3602 4972 mt 
(10) s
%%IncludeResource: font Helvetica
/Helvetica /WindowsLatin1Encoding 96 FMSR

3762 4883 mt 
(4) s
3867 4760 mt 3867 4746 L
3867 3272 mt 3867 3285 L
3959 4760 mt 3959 4746 L
3959 3272 mt 3959 3285 L
4025 4760 mt 4025 4746 L
4025 3272 mt 4025 3285 L
4076 4760 mt 4076 4746 L
4076 3272 mt 4076 3285 L
4118 4760 mt 4118 4746 L
4118 3272 mt 4118 3285 L
4153 4760 mt 4153 4746 L
4153 3272 mt 4153 3285 L
4183 4760 mt 4183 4746 L
4183 3272 mt 4183 3285 L
4210 4760 mt 4210 4746 L
4210 3272 mt 4210 3285 L
4235 4760 mt 4235 4746 L
4235 3272 mt 4235 3285 L
4235 4760 mt 4235 4733 L
4235 3272 mt 4235 3298 L
%%IncludeResource: font Helvetica
/Helvetica /WindowsLatin1Encoding 144 FMSR

4129 4972 mt 
(10) s
%%IncludeResource: font Helvetica
/Helvetica /WindowsLatin1Encoding 96 FMSR

4289 4883 mt 
(5) s
1603 4760 mt 1616 4760 L
4235 4760 mt 4221 4760 L
1603 4760 mt 1629 4760 L
4235 4760 mt 4208 4760 L
%%IncludeResource: font Helvetica
/Helvetica /WindowsLatin1Encoding 144 FMSR

1355 4813 mt 
(10) s
%%IncludeResource: font Helvetica
/Helvetica /WindowsLatin1Encoding 96 FMSR

1515 4724 mt 
(0) s
1603 4536 mt 1616 4536 L
4235 4536 mt 4221 4536 L
1603 4405 mt 1616 4405 L
4235 4405 mt 4221 4405 L
1603 4312 mt 1616 4312 L
4235 4312 mt 4221 4312 L
1603 4239 mt 1616 4239 L
4235 4239 mt 4221 4239 L
1603 4181 mt 1616 4181 L
4235 4181 mt 4221 4181 L
1603 4131 mt 1616 4131 L
4235 4131 mt 4221 4131 L
1603 4088 mt 1616 4088 L
4235 4088 mt 4221 4088 L
1603 4050 mt 1616 4050 L
4235 4050 mt 4221 4050 L
1603 4016 mt 1616 4016 L
4235 4016 mt 4221 4016 L
1603 4016 mt 1629 4016 L
4235 4016 mt 4208 4016 L
%%IncludeResource: font Helvetica
/Helvetica /WindowsLatin1Encoding 144 FMSR

1355 4069 mt 
(10) s
%%IncludeResource: font Helvetica
/Helvetica /WindowsLatin1Encoding 96 FMSR

1515 3980 mt 
(1) s
1603 3792 mt 1616 3792 L
4235 3792 mt 4221 3792 L
1603 3661 mt 1616 3661 L
4235 3661 mt 4221 3661 L
1603 3568 mt 1616 3568 L
4235 3568 mt 4221 3568 L
1603 3495 mt 1616 3495 L
4235 3495 mt 4221 3495 L
1603 3437 mt 1616 3437 L
4235 3437 mt 4221 3437 L
1603 3387 mt 1616 3387 L
4235 3387 mt 4221 3387 L
1603 3344 mt 1616 3344 L
4235 3344 mt 4221 3344 L
1603 3306 mt 1616 3306 L
4235 3306 mt 4221 3306 L
1603 3272 mt 1616 3272 L
4235 3272 mt 4221 3272 L
1603 3272 mt 1629 3272 L
4235 3272 mt 4208 3272 L
%%IncludeResource: font Helvetica
/Helvetica /WindowsLatin1Encoding 144 FMSR

1355 3325 mt 
(10) s
%%IncludeResource: font Helvetica
/Helvetica /WindowsLatin1Encoding 96 FMSR

1515 3236 mt 
(2) s
1603 3272 mt 4235 3272 L
1603 4760 mt 4235 4760 L
4235 4760 mt 4235 3272 L
1603 4760 mt 1603 3272 L
gs 1603 3272 2633 1489 rc
24 w
c11
88 125 158 224 159 224 158 178 57 79 2 4 2 3 3 3 
2 3 2 4 3 3 2 4 3 3 2 4 3 3 2 4 
3 4 3 3 2 4 3 4 3 4 2 3 3 4 3 4 
3 4 3 4 3 5 2 4 3 4 3 4 4 5 3 -22 
3 5 3 4 3 5 4 4 3 5 3 5 4 5 3 5 
4 5 3 5 4 5 4 5 3 5 4 6 4 -23 4 6 
4 6 4 5 5 6 4 6 4 7 5 6 4 6 5 7 
4 -24 5 6 5 7 5 8 5 7 6 7 5 8 6 8 
5 8 6 8 6 8 6 9 6 9 7 9 6 9 7 10 
7 10 7 10 8 11 8 10 8 12 8 12 9 -22 9 -26 
9 -30 10 14 10 -35 10 15 12 15 11 17 13 18 13 18 
14 -39 14 -52 16 23 17 24 18 26 20 28 22 30 24 34 
27 39 31 43 35 -43 42 58 51 -58 65 92 93 -92 100 -1266 
1661 4761 105 MP stroke
c8
20 25 158 193 159 224 158 152 57 79 2 4 2 3 3 3 
2 4 2 3 3 3 2 4 3 3 2 4 3 3 2 4 
3 4 3 3 2 4 3 4 3 4 2 4 3 4 3 3 
3 4 3 5 3 4 2 4 3 4 3 4 4 5 3 -39 
3 4 3 5 3 4 4 5 3 5 3 5 4 5 3 4 
4 5 3 6 4 5 4 5 3 5 4 6 4 -45 4 6 
4 6 4 6 5 6 4 6 4 6 5 6 4 6 5 7 
4 7 5 6 5 7 5 7 5 8 6 7 5 8 6 8 
5 8 6 8 6 8 6 9 6 9 7 9 6 9 7 10 
7 10 7 10 8 10 8 11 8 12 8 12 9 12 9 12 
9 14 10 -46 10 15 10 -57 12 -77 11 16 13 18 13 18 
14 20 14 20 16 23 17 24 18 26 20 28 22 30 24 35 
27 38 31 -88 35 -174 23 -911 1989 4761 101 MP stroke
c9
159 -23 158 -15 158 -23 159 -20 158 7 159 -27 158 -14 159 224 
158 151 57 80 2 3 2 4 3 3 2 3 2 4 3 3 
2 4 3 3 2 4 3 3 2 4 3 3 3 4 2 4 
3 4 3 4 2 3 3 4 3 4 3 4 3 4 3 4 
2 5 3 4 3 4 4 4 3 -38 3 4 3 5 3 4 
4 5 3 5 3 4 4 5 3 5 4 5 3 5 4 6 
4 -76 3 5 4 6 4 36 4 6 4 6 4 5 5 6 
4 6 4 7 5 6 4 6 5 7 4 6 5 7 5 7 
5 7 5 8 6 7 5 8 6 7 5 8 6 8 6 9 
6 8 6 9 7 9 6 10 7 9 7 10 7 11 8 -79 
8 11 8 11 8 12 9 12 9 12 9 14 10 44 10 15 
10 -58 12 -15 11 -45 13 17 13 19 14 19 14 21 16 23 
17 24 18 25 20 28 22 31 24 34 27 38 31 -87 35 -175 
24 -941 1988 4761 106 MP stroke
0 sg
159 -17 158 -13 158 -6 159 -38 158 -10 159 5 158 -174 159 -372 
63 -53 2807 4761 10 MP stroke
DA
c11
159 -20 158 -16 158 -46 159 -57 158 -37 159 -15 158 77 159 -26 
158 224 57 51 2 4 2 3 3 3 2 3 2 4 3 3 
2 4 3 3 2 4 3 3 2 4 3 4 3 3 2 4 
3 4 3 4 2 4 3 3 3 4 3 4 3 4 3 5 
2 4 3 4 3 -27 4 5 3 4 3 5 3 4 3 5 
4 4 3 5 3 5 4 5 3 5 4 5 3 5 4 5 
4 5 3 6 4 5 4 6 4 5 4 6 4 6 5 6 
4 6 4 6 5 6 4 6 5 7 4 37 5 7 5 7 
5 7 5 8 6 7 5 8 6 7 5 8 6 9 6 8 
6 9 6 8 7 10 6 9 7 10 7 9 7 11 8 10 
8 11 8 12 8 11 9 -18 9 12 9 14 10 -21 10 -23 
10 -28 12 15 11 -2 13 17 13 19 14 -11 14 20 16 -36 
17 24 18 26 20 -14 22 31 24 -220 27 38 31 104 35 -11 
42 -166 30 -969 1940 4761 107 MP stroke
gr

24 w
c11
DA
0 sg
%%IncludeResource: font Helvetica
/Helvetica /WindowsLatin1Encoding 144 FMSR

2413 3158 mt 
(plink fastepi vs. ) s
1268 4469 mt  -90 rotate
(intersection %) s
90 rotate
2391 5133 mt 
(sorted list length) s
SO
6 w
1 sg
0 1488 2631 0 0 -1488 5066 4760 4 MP
PP
-2631 0 0 1488 2631 0 0 -1488 5066 4760 5 MP stroke
4 w
DO
SO
6 w
0 sg
5066 3272 mt 7697 3272 L
5066 4760 mt 7697 4760 L
7697 4760 mt 7697 3272 L
5066 4760 mt 5066 3272 L
5066 4760 mt 7697 4760 L
5066 4760 mt 5066 3272 L
5066 4760 mt 5066 4746 L
5066 3272 mt 5066 3285 L
5066 4760 mt 5066 4733 L
5066 3272 mt 5066 3298 L
4960 4972 mt 
(10) s
%%IncludeResource: font Helvetica
/Helvetica /WindowsLatin1Encoding 96 FMSR

5120 4883 mt 
(0) s
5224 4760 mt 5224 4746 L
5224 3272 mt 5224 3285 L
5317 4760 mt 5317 4746 L
5317 3272 mt 5317 3285 L
5382 4760 mt 5382 4746 L
5382 3272 mt 5382 3285 L
5433 4760 mt 5433 4746 L
5433 3272 mt 5433 3285 L
5475 4760 mt 5475 4746 L
5475 3272 mt 5475 3285 L
5510 4760 mt 5510 4746 L
5510 3272 mt 5510 3285 L
5541 4760 mt 5541 4746 L
5541 3272 mt 5541 3285 L
5568 4760 mt 5568 4746 L
5568 3272 mt 5568 3285 L
5592 4760 mt 5592 4746 L
5592 3272 mt 5592 3285 L
5592 4760 mt 5592 4733 L
5592 3272 mt 5592 3298 L
%%IncludeResource: font Helvetica
/Helvetica /WindowsLatin1Encoding 144 FMSR

5486 4972 mt 
(10) s
%%IncludeResource: font Helvetica
/Helvetica /WindowsLatin1Encoding 96 FMSR

5646 4883 mt 
(1) s
5750 4760 mt 5750 4746 L
5750 3272 mt 5750 3285 L
5843 4760 mt 5843 4746 L
5843 3272 mt 5843 3285 L
5909 4760 mt 5909 4746 L
5909 3272 mt 5909 3285 L
5959 4760 mt 5959 4746 L
5959 3272 mt 5959 3285 L
6001 4760 mt 6001 4746 L
6001 3272 mt 6001 3285 L
6036 4760 mt 6036 4746 L
6036 3272 mt 6036 3285 L
6067 4760 mt 6067 4746 L
6067 3272 mt 6067 3285 L
6094 4760 mt 6094 4746 L
6094 3272 mt 6094 3285 L
6118 4760 mt 6118 4746 L
6118 3272 mt 6118 3285 L
6118 4760 mt 6118 4733 L
6118 3272 mt 6118 3298 L
%%IncludeResource: font Helvetica
/Helvetica /WindowsLatin1Encoding 144 FMSR

6012 4972 mt 
(10) s
%%IncludeResource: font Helvetica
/Helvetica /WindowsLatin1Encoding 96 FMSR

6172 4883 mt 
(2) s
6276 4760 mt 6276 4746 L
6276 3272 mt 6276 3285 L
6369 4760 mt 6369 4746 L
6369 3272 mt 6369 3285 L
6435 4760 mt 6435 4746 L
6435 3272 mt 6435 3285 L
6486 4760 mt 6486 4746 L
6486 3272 mt 6486 3285 L
6527 4760 mt 6527 4746 L
6527 3272 mt 6527 3285 L
6563 4760 mt 6563 4746 L
6563 3272 mt 6563 3285 L
6593 4760 mt 6593 4746 L
6593 3272 mt 6593 3285 L
6620 4760 mt 6620 4746 L
6620 3272 mt 6620 3285 L
6644 4760 mt 6644 4746 L
6644 3272 mt 6644 3285 L
6644 4760 mt 6644 4733 L
6644 3272 mt 6644 3298 L
%%IncludeResource: font Helvetica
/Helvetica /WindowsLatin1Encoding 144 FMSR

6538 4972 mt 
(10) s
%%IncludeResource: font Helvetica
/Helvetica /WindowsLatin1Encoding 96 FMSR

6698 4883 mt 
(3) s
6803 4760 mt 6803 4746 L
6803 3272 mt 6803 3285 L
6895 4760 mt 6895 4746 L
6895 3272 mt 6895 3285 L
6961 4760 mt 6961 4746 L
6961 3272 mt 6961 3285 L
7012 4760 mt 7012 4746 L
7012 3272 mt 7012 3285 L
7054 4760 mt 7054 4746 L
7054 3272 mt 7054 3285 L
7089 4760 mt 7089 4746 L
7089 3272 mt 7089 3285 L
7119 4760 mt 7119 4746 L
7119 3272 mt 7119 3285 L
7146 4760 mt 7146 4746 L
7146 3272 mt 7146 3285 L
7170 4760 mt 7170 4746 L
7170 3272 mt 7170 3285 L
7170 4760 mt 7170 4733 L
7170 3272 mt 7170 3298 L
%%IncludeResource: font Helvetica
/Helvetica /WindowsLatin1Encoding 144 FMSR

7064 4972 mt 
(10) s
%%IncludeResource: font Helvetica
/Helvetica /WindowsLatin1Encoding 96 FMSR

7224 4883 mt 
(4) s
7329 4760 mt 7329 4746 L
7329 3272 mt 7329 3285 L
7421 4760 mt 7421 4746 L
7421 3272 mt 7421 3285 L
7487 4760 mt 7487 4746 L
7487 3272 mt 7487 3285 L
7538 4760 mt 7538 4746 L
7538 3272 mt 7538 3285 L
7580 4760 mt 7580 4746 L
7580 3272 mt 7580 3285 L
7615 4760 mt 7615 4746 L
7615 3272 mt 7615 3285 L
7646 4760 mt 7646 4746 L
7646 3272 mt 7646 3285 L
7672 4760 mt 7672 4746 L
7672 3272 mt 7672 3285 L
7697 4760 mt 7697 4746 L
7697 3272 mt 7697 3285 L
7697 4760 mt 7697 4733 L
7697 3272 mt 7697 3298 L
%%IncludeResource: font Helvetica
/Helvetica /WindowsLatin1Encoding 144 FMSR

7591 4972 mt 
(10) s
%%IncludeResource: font Helvetica
/Helvetica /WindowsLatin1Encoding 96 FMSR

7751 4883 mt 
(5) s
5066 4760 mt 5079 4760 L
7697 4760 mt 7683 4760 L
5066 4760 mt 5092 4760 L
7697 4760 mt 7670 4760 L
%%IncludeResource: font Helvetica
/Helvetica /WindowsLatin1Encoding 144 FMSR

4818 4813 mt 
(10) s
%%IncludeResource: font Helvetica
/Helvetica /WindowsLatin1Encoding 96 FMSR

4978 4724 mt 
(0) s
5066 4536 mt 5079 4536 L
7697 4536 mt 7683 4536 L
5066 4405 mt 5079 4405 L
7697 4405 mt 7683 4405 L
5066 4312 mt 5079 4312 L
7697 4312 mt 7683 4312 L
5066 4239 mt 5079 4239 L
7697 4239 mt 7683 4239 L
5066 4181 mt 5079 4181 L
7697 4181 mt 7683 4181 L
5066 4131 mt 5079 4131 L
7697 4131 mt 7683 4131 L
5066 4088 mt 5079 4088 L
7697 4088 mt 7683 4088 L
5066 4050 mt 5079 4050 L
7697 4050 mt 7683 4050 L
5066 4016 mt 5079 4016 L
7697 4016 mt 7683 4016 L
5066 4016 mt 5092 4016 L
7697 4016 mt 7670 4016 L
%%IncludeResource: font Helvetica
/Helvetica /WindowsLatin1Encoding 144 FMSR

4818 4069 mt 
(10) s
%%IncludeResource: font Helvetica
/Helvetica /WindowsLatin1Encoding 96 FMSR

4978 3980 mt 
(1) s
5066 3792 mt 5079 3792 L
7697 3792 mt 7683 3792 L
5066 3661 mt 5079 3661 L
7697 3661 mt 7683 3661 L
5066 3568 mt 5079 3568 L
7697 3568 mt 7683 3568 L
5066 3495 mt 5079 3495 L
7697 3495 mt 7683 3495 L
5066 3437 mt 5079 3437 L
7697 3437 mt 7683 3437 L
5066 3387 mt 5079 3387 L
7697 3387 mt 7683 3387 L
5066 3344 mt 5079 3344 L
7697 3344 mt 7683 3344 L
5066 3306 mt 5079 3306 L
7697 3306 mt 7683 3306 L
5066 3272 mt 5079 3272 L
7697 3272 mt 7683 3272 L
5066 3272 mt 5092 3272 L
7697 3272 mt 7670 3272 L
%%IncludeResource: font Helvetica
/Helvetica /WindowsLatin1Encoding 144 FMSR

4818 3325 mt 
(10) s
%%IncludeResource: font Helvetica
/Helvetica /WindowsLatin1Encoding 96 FMSR

4978 3236 mt 
(2) s
5066 3272 mt 7697 3272 L
5066 4760 mt 7697 4760 L
7697 4760 mt 7697 3272 L
5066 4760 mt 5066 3272 L
gs 5066 3272 2632 1489 rc
24 w
c11
140 184 159 186 158 224 159 180 56 30 2 4 3 3 2 3 
2 4 3 3 2 3 3 4 2 3 3 4 2 3 3 4 
2 4 3 3 3 4 2 4 3 4 3 4 2 4 3 3 
3 5 3 4 3 4 3 4 3 4 3 4 3 5 3 4 
3 5 3 4 4 5 3 -24 3 5 4 5 3 5 4 4 
3 -25 4 5 3 -29 4 -33 4 5 4 6 4 5 4 -37 
4 6 4 5 4 6 4 6 5 7 4 6 5 6 4 7 
5 6 5 7 5 7 5 7 5 8 5 7 5 8 6 7 
5 8 6 9 6 8 6 -41 7 9 6 9 7 9 6 10 
7 10 8 10 7 10 8 11 8 12 8 12 9 12 9 12 
9 14 10 -46 10 15 11 15 11 16 12 -56 12 -75 13 -113 
14 20 15 20 15 -201 17 24 19 26 9 -687 5624 4761 95 MP stroke
c8
87 125 159 178 158 67 159 131 56 79 2 4 3 3 2 3 
2 4 3 3 2 3 3 4 2 3 3 4 2 3 3 4 
2 4 3 3 3 4 2 4 3 4 3 4 2 4 3 4 
3 -55 3 -68 3 4 3 4 3 4 3 -89 3 5 3 4 
3 5 3 4 4 5 3 4 3 5 4 5 3 5 4 5 
3 -126 4 5 3 5 4 5 4 6 4 5 4 5 4 6 
4 6 4 6 4 6 4 6 5 6 4 6 5 6 4 7 
5 7 5 6 5 7 5 7 5 8 5 7 5 8 6 8 
5 8 6 8 6 8 6 9 7 9 6 9 7 9 6 10 
7 10 8 10 7 10 8 11 8 12 8 12 9 12 9 12 
9 14 10 13 10 15 11 15 11 15 12 -207 12 18 13 18 
14 20 15 20 15 54 17 24 19 25 20 -2 21 30 24 35 
14 -780 5554 4761 98 MP stroke
c9
158 -10 159 -12 158 -21 159 -12 158 -14 158 17 159 40 158 17 
159 -157 56 -94 2 4 3 3 2 3 2 4 3 3 2 3 
3 4 2 3 3 4 2 3 3 -34 2 4 3 3 3 4 
2 4 3 4 3 4 2 4 3 3 3 4 3 5 3 4 
3 4 3 4 3 4 3 -38 3 4 3 4 3 5 4 4 
3 5 3 -45 4 -54 3 5 4 5 3 5 4 5 3 5 
4 5 4 6 4 5 4 6 4 5 4 6 4 6 4 6 
4 6 5 6 4 -66 5 6 4 7 5 7 5 6 5 7 
5 7 5 8 5 7 5 8 6 8 5 7 6 -84 6 8 
6 -91 7 8 6 9 7 10 6 9 7 10 8 11 7 10 
8 11 8 12 8 11 9 13 9 12 9 13 10 14 10 14 
11 16 11 15 12 -14 12 18 13 -175 14 19 15 21 15 53 
17 24 19 26 20 -3 21 31 24 34 15 -810 5553 4761 103 MP stroke
c10
158 -17 159 -13 158 -6 159 -38 158 -10 158 5 159 -174 158 -372 
63 -53 6270 4761 10 MP stroke
DA
c11
158 -10 159 -8 158 -16 159 -19 158 -4 158 -12 159 29 158 78 
159 22 56 -44 2 4 3 3 2 -8 2 -19 3 3 2 3 
3 4 2 3 3 -8 2 3 3 -9 2 4 3 -10 3 -10 
2 4 3 4 3 4 2 4 3 4 3 -26 3 4 3 5 
3 4 3 -28 3 4 3 -13 3 -14 3 4 3 5 4 4 
3 5 3 5 4 -15 3 5 4 5 3 -39 4 6 3 5 
4 -19 4 -21 4 -53 4 6 4 5 4 6 4 6 4 6 
4 6 5 -28 4 -32 5 6 4 -5 5 6 5 -74 5 7 
5 7 5 8 5 7 5 8 6 8 5 8 6 8 6 8 
6 39 7 9 6 9 7 10 6 9 7 10 8 11 7 10 
8 11 8 12 8 11 9 13 9 12 9 13 10 -17 10 15 
11 15 11 -13 12 -14 12 18 13 18 14 20 15 21 15 22 
17 24 19 -46 20 28 21 30 24 34 27 39 31 43 35 -43 
42 58 51 -58 65 -131 60 -1135 5257 4761 109 MP stroke
gr

24 w
c11
DA
0 sg
%%IncludeResource: font Helvetica
/Helvetica /WindowsLatin1Encoding 144 FMSR

5952 3158 mt 
(Info. Gain vs. ) s
4731 4469 mt  -90 rotate
(intersection %) s
90 rotate
5853 5133 mt 
(sorted list length) s
SO
6 w
1 sg
0 1488 2632 0 0 -1488 8528 4760 4 MP
PP
-2632 0 0 1488 2632 0 0 -1488 8528 4760 5 MP stroke
4 w
DO
SO
6 w
0 sg
8528 3272 mt 11160 3272 L
8528 4760 mt 11160 4760 L
11160 4760 mt 11160 3272 L
8528 4760 mt 8528 3272 L
8528 4760 mt 11160 4760 L
8528 4760 mt 8528 3272 L
8528 4760 mt 8528 4746 L
8528 3272 mt 8528 3285 L
8528 4760 mt 8528 4733 L
8528 3272 mt 8528 3298 L
8422 4972 mt 
(10) s
%%IncludeResource: font Helvetica
/Helvetica /WindowsLatin1Encoding 96 FMSR

8582 4883 mt 
(0) s
8686 4760 mt 8686 4746 L
8686 3272 mt 8686 3285 L
8779 4760 mt 8779 4746 L
8779 3272 mt 8779 3285 L
8844 4760 mt 8844 4746 L
8844 3272 mt 8844 3285 L
8895 4760 mt 8895 4746 L
8895 3272 mt 8895 3285 L
8937 4760 mt 8937 4746 L
8937 3272 mt 8937 3285 L
8972 4760 mt 8972 4746 L
8972 3272 mt 8972 3285 L
9003 4760 mt 9003 4746 L
9003 3272 mt 9003 3285 L
9030 4760 mt 9030 4746 L
9030 3272 mt 9030 3285 L
9054 4760 mt 9054 4746 L
9054 3272 mt 9054 3285 L
9054 4760 mt 9054 4733 L
9054 3272 mt 9054 3298 L
%%IncludeResource: font Helvetica
/Helvetica /WindowsLatin1Encoding 144 FMSR

8948 4972 mt 
(10) s
%%IncludeResource: font Helvetica
/Helvetica /WindowsLatin1Encoding 96 FMSR

9108 4883 mt 
(1) s
9212 4760 mt 9212 4746 L
9212 3272 mt 9212 3285 L
9305 4760 mt 9305 4746 L
9305 3272 mt 9305 3285 L
9371 4760 mt 9371 4746 L
9371 3272 mt 9371 3285 L
9422 4760 mt 9422 4746 L
9422 3272 mt 9422 3285 L
9464 4760 mt 9464 4746 L
9464 3272 mt 9464 3285 L
9499 4760 mt 9499 4746 L
9499 3272 mt 9499 3285 L
9529 4760 mt 9529 4746 L
9529 3272 mt 9529 3285 L
9556 4760 mt 9556 4746 L
9556 3272 mt 9556 3285 L
9580 4760 mt 9580 4746 L
9580 3272 mt 9580 3285 L
9580 4760 mt 9580 4733 L
9580 3272 mt 9580 3298 L
%%IncludeResource: font Helvetica
/Helvetica /WindowsLatin1Encoding 144 FMSR

9474 4972 mt 
(10) s
%%IncludeResource: font Helvetica
/Helvetica /WindowsLatin1Encoding 96 FMSR

9634 4883 mt 
(2) s
9739 4760 mt 9739 4746 L
9739 3272 mt 9739 3285 L
9831 4760 mt 9831 4746 L
9831 3272 mt 9831 3285 L
9897 4760 mt 9897 4746 L
9897 3272 mt 9897 3285 L
9948 4760 mt 9948 4746 L
9948 3272 mt 9948 3285 L
9990 4760 mt 9990 4746 L
9990 3272 mt 9990 3285 L
10025 4760 mt 10025 4746 L
10025 3272 mt 10025 3285 L
10056 4760 mt 10056 4746 L
10056 3272 mt 10056 3285 L
10083 4760 mt 10083 4746 L
10083 3272 mt 10083 3285 L
10107 4760 mt 10107 4746 L
10107 3272 mt 10107 3285 L
10107 4760 mt 10107 4733 L
10107 3272 mt 10107 3298 L
%%IncludeResource: font Helvetica
/Helvetica /WindowsLatin1Encoding 144 FMSR

10001 4972 mt 
(10) s
%%IncludeResource: font Helvetica
/Helvetica /WindowsLatin1Encoding 96 FMSR

10161 4883 mt 
(3) s
10265 4760 mt 10265 4746 L
10265 3272 mt 10265 3285 L
10358 4760 mt 10358 4746 L
10358 3272 mt 10358 3285 L
10424 4760 mt 10424 4746 L
10424 3272 mt 10424 3285 L
10475 4760 mt 10475 4746 L
10475 3272 mt 10475 3285 L
10516 4760 mt 10516 4746 L
10516 3272 mt 10516 3285 L
10552 4760 mt 10552 4746 L
10552 3272 mt 10552 3285 L
10582 4760 mt 10582 4746 L
10582 3272 mt 10582 3285 L
10609 4760 mt 10609 4746 L
10609 3272 mt 10609 3285 L
10633 4760 mt 10633 4746 L
10633 3272 mt 10633 3285 L
10633 4760 mt 10633 4733 L
10633 3272 mt 10633 3298 L
%%IncludeResource: font Helvetica
/Helvetica /WindowsLatin1Encoding 144 FMSR

10527 4972 mt 
(10) s
%%IncludeResource: font Helvetica
/Helvetica /WindowsLatin1Encoding 96 FMSR

10687 4883 mt 
(4) s
10792 4760 mt 10792 4746 L
10792 3272 mt 10792 3285 L
10884 4760 mt 10884 4746 L
10884 3272 mt 10884 3285 L
10950 4760 mt 10950 4746 L
10950 3272 mt 10950 3285 L
11001 4760 mt 11001 4746 L
11001 3272 mt 11001 3285 L
11043 4760 mt 11043 4746 L
11043 3272 mt 11043 3285 L
11078 4760 mt 11078 4746 L
11078 3272 mt 11078 3285 L
11108 4760 mt 11108 4746 L
11108 3272 mt 11108 3285 L
11135 4760 mt 11135 4746 L
11135 3272 mt 11135 3285 L
11160 4760 mt 11160 4746 L
11160 3272 mt 11160 3285 L
11160 4760 mt 11160 4733 L
11160 3272 mt 11160 3298 L
%%IncludeResource: font Helvetica
/Helvetica /WindowsLatin1Encoding 144 FMSR

11054 4972 mt 
(10) s
%%IncludeResource: font Helvetica
/Helvetica /WindowsLatin1Encoding 96 FMSR

11214 4883 mt 
(5) s
8528 4760 mt 8541 4760 L
11160 4760 mt 11146 4760 L
8528 4760 mt 8554 4760 L
11160 4760 mt 11133 4760 L
%%IncludeResource: font Helvetica
/Helvetica /WindowsLatin1Encoding 144 FMSR

8280 4813 mt 
(10) s
%%IncludeResource: font Helvetica
/Helvetica /WindowsLatin1Encoding 96 FMSR

8440 4724 mt 
(0) s
8528 4536 mt 8541 4536 L
11160 4536 mt 11146 4536 L
8528 4405 mt 8541 4405 L
11160 4405 mt 11146 4405 L
8528 4312 mt 8541 4312 L
11160 4312 mt 11146 4312 L
8528 4239 mt 8541 4239 L
11160 4239 mt 11146 4239 L
8528 4181 mt 8541 4181 L
11160 4181 mt 11146 4181 L
8528 4131 mt 8541 4131 L
11160 4131 mt 11146 4131 L
8528 4088 mt 8541 4088 L
11160 4088 mt 11146 4088 L
8528 4050 mt 8541 4050 L
11160 4050 mt 11146 4050 L
8528 4016 mt 8541 4016 L
11160 4016 mt 11146 4016 L
8528 4016 mt 8554 4016 L
11160 4016 mt 11133 4016 L
%%IncludeResource: font Helvetica
/Helvetica /WindowsLatin1Encoding 144 FMSR

8280 4069 mt 
(10) s
%%IncludeResource: font Helvetica
/Helvetica /WindowsLatin1Encoding 96 FMSR

8440 3980 mt 
(1) s
8528 3792 mt 8541 3792 L
11160 3792 mt 11146 3792 L
8528 3661 mt 8541 3661 L
11160 3661 mt 11146 3661 L
8528 3568 mt 8541 3568 L
11160 3568 mt 11146 3568 L
8528 3495 mt 8541 3495 L
11160 3495 mt 11146 3495 L
8528 3437 mt 8541 3437 L
11160 3437 mt 11146 3437 L
8528 3387 mt 8541 3387 L
11160 3387 mt 11146 3387 L
8528 3344 mt 8541 3344 L
11160 3344 mt 11146 3344 L
8528 3306 mt 8541 3306 L
11160 3306 mt 11146 3306 L
8528 3272 mt 8541 3272 L
11160 3272 mt 11146 3272 L
8528 3272 mt 8554 3272 L
11160 3272 mt 11133 3272 L
%%IncludeResource: font Helvetica
/Helvetica /WindowsLatin1Encoding 144 FMSR

8280 3325 mt 
(10) s
%%IncludeResource: font Helvetica
/Helvetica /WindowsLatin1Encoding 96 FMSR

8440 3236 mt 
(2) s
8528 3272 mt 11160 3272 L
8528 4760 mt 11160 4760 L
11160 4760 mt 11160 3272 L
8528 4760 mt 8528 3272 L
gs 8528 3272 2633 1489 rc
24 w
c11
4 6 159 204 158 207 159 191 158 178 159 176 158 160 57 37 
2 -5 2 -7 3 4 2 3 2 3 3 -6 2 4 3 -7 
2 4 3 3 2 4 3 4 3 3 2 4 3 4 3 -7 
2 4 3 4 3 -6 3 4 3 4 3 4 2 4 3 4 
3 4 4 5 3 4 3 -6 3 4 3 5 4 4 3 5 
3 5 4 5 3 5 4 5 3 5 4 -6 4 5 3 5 
4 6 4 5 4 6 4 6 4 5 5 6 4 6 4 6 
5 7 4 6 5 7 4 -5 5 6 5 7 5 -5 5 8 
6 7 5 8 6 7 5 8 6 8 6 9 6 -17 6 8 
7 10 6 -5 7 10 7 -5 7 -4 8 10 8 11 8 -4 
8 -5 9 -5 9 -26 9 -30 10 -36 10 -44 10 -19 12 15 
11 -21 13 17 13 -24 14 19 14 21 16 -27 17 -107 18 -67 
20 -103 22 30 24 35 27 38 31 43 35 -174 42 58 51 73 
65 93 93 131 100 -1266 8586 4761 108 MP stroke
c8
121 161 158 198 159 186 158 199 159 184 158 186 57 63 2 3 
2 3 3 4 2 -6 2 4 3 3 2 -5 3 3 2 4 
3 -6 2 4 3 4 3 3 2 -5 3 -6 3 4 2 -6 
3 3 3 -6 3 24 3 4 3 -37 2 4 3 4 3 -7 
4 -7 3 -8 3 4 3 5 3 4 4 5 3 5 3 5 
4 -8 3 5 4 -8 3 5 4 -9 4 5 3 6 4 -9 
4 5 4 6 4 6 4 -10 5 6 4 -9 4 6 5 6 
4 6 5 7 4 7 5 6 5 7 5 -9 5 7 6 8 
5 7 6 8 5 8 6 8 6 9 6 -9 6 9 7 -10 
6 -10 7 -34 7 -14 7 -15 8 10 8 11 8 12 8 11 
9 13 9 -16 9 -17 10 -59 10 -29 10 -34 12 15 11 -42 
13 18 13 18 14 20 14 21 16 22 17 -18 18 -4 20 28 
22 -63 24 -66 27 -216 16 -818 8987 4761 101 MP stroke
c9
159 4 158 5 158 10 159 14 158 -6 159 18 158 40 159 39 
158 20 57 38 2 3 2 3 3 3 2 4 2 3 3 4 
2 3 3 3 2 4 3 4 2 -3 3 3 3 4 2 4 
3 4 3 3 2 4 3 4 3 -9 3 4 3 4 3 4 
2 4 3 4 3 4 4 -2 3 4 3 5 3 -3 3 5 
4 4 3 -2 3 -3 4 5 3 5 4 -3 3 5 4 -2 
4 5 3 5 4 6 4 5 4 -10 4 6 4 -3 5 -3 
4 -12 4 7 5 -4 4 -13 5 7 4 -4 5 -4 5 -4 
5 -16 5 26 6 -36 5 8 6 -6 5 -5 6 -6 6 8 
6 -22 6 -8 7 4 6 -10 7 -34 7 -14 7 -15 8 -49 
8 11 8 12 8 11 9 13 9 -19 9 -20 10 6 10 -29 
10 -15 12 15 11 -33 13 -11 13 -84 14 20 14 20 16 23 
17 85 18 -5 20 28 22 -62 24 -66 27 -217 17 -848 8986 4761 104 MP stroke
c10
159 -20 158 -16 158 -46 159 -57 158 -37 159 -15 158 77 159 -26 
158 224 57 51 2 4 2 3 3 3 2 3 2 4 3 3 
2 4 3 3 2 4 3 3 2 4 3 4 3 3 2 4 
3 4 3 4 2 4 3 3 3 4 3 4 3 4 3 5 
2 4 3 4 3 -27 4 5 3 4 3 5 3 4 3 5 
4 4 3 5 3 5 4 5 3 5 4 5 3 5 4 5 
4 5 3 6 4 5 4 6 4 5 4 6 4 6 5 6 
4 6 4 6 5 6 4 6 5 7 4 7 5 6 5 7 
5 8 5 7 6 7 5 8 6 8 5 8 6 8 6 8 
6 9 6 9 7 9 6 9 7 10 7 10 7 10 8 11 
8 10 8 12 8 12 9 12 9 74 9 -18 10 -51 10 -23 
10 2 12 16 11 -33 13 -13 13 18 14 20 14 20 16 -5 
17 -7 18 26 20 17 22 -31 24 -97 27 -24 31 44 35 19 
42 -135 30 -1000 8865 4761 107 MP stroke
0 sg
159 -10 158 -8 158 -16 159 -19 158 -4 159 -12 158 29 159 78 
158 22 57 -44 2 4 2 3 3 -8 2 -19 2 3 3 3 
2 4 3 3 2 -8 3 3 2 -9 3 4 3 -10 2 -10 
3 4 3 4 2 4 3 4 3 4 3 -26 3 4 3 5 
2 4 3 -28 3 4 4 -13 3 -14 3 4 3 5 3 4 
4 5 3 5 3 -15 4 5 3 5 4 -39 3 6 4 5 
4 -19 3 -21 4 -22 4 5 4 6 4 6 4 5 5 6 
4 6 4 -58 5 -32 4 6 5 -36 4 6 5 -43 5 7 
5 7 5 8 6 7 5 8 6 8 5 8 6 8 6 8 
6 9 6 9 7 9 6 9 7 10 7 10 7 10 8 10 
8 11 8 12 8 12 9 12 9 12 9 14 10 13 10 15 
10 46 12 -74 11 47 13 48 13 -12 14 19 14 21 16 53 
17 -6 18 -16 20 59 22 -31 24 3 27 39 31 43 35 -43 
42 58 51 -58 65 -101 60 -1165 8719 4761 109 MP stroke
gr

24 w
%%IncludeResource: font Helvetica
/Helvetica /WindowsLatin1Encoding 144 FMSR

9376 3158 mt 
(SHEsisEpi vs. ) s
8193 4469 mt  -90 rotate
(intersection %) s
90 rotate
9316 5133 mt 
(sorted list length) s
6 w
1 sg
0 1488 2631 0 0 -1488 5066 7283 4 MP
PP
-2631 0 0 1488 2631 0 0 -1488 5066 7283 5 MP stroke
4 w
DO
SO
6 w
0 sg
5066 5795 mt 7697 5795 L
5066 7283 mt 7697 7283 L
7697 7283 mt 7697 5795 L
5066 7283 mt 5066 5795 L
5066 7283 mt 7697 7283 L
5066 7283 mt 5066 5795 L
5066 7283 mt 5066 7269 L
5066 5795 mt 5066 5808 L
5066 7283 mt 5066 7256 L
5066 5795 mt 5066 5821 L
4960 7495 mt 
(10) s
%%IncludeResource: font Helvetica
/Helvetica /WindowsLatin1Encoding 96 FMSR

5120 7406 mt 
(0) s
5224 7283 mt 5224 7269 L
5224 5795 mt 5224 5808 L
5317 7283 mt 5317 7269 L
5317 5795 mt 5317 5808 L
5382 7283 mt 5382 7269 L
5382 5795 mt 5382 5808 L
5433 7283 mt 5433 7269 L
5433 5795 mt 5433 5808 L
5475 7283 mt 5475 7269 L
5475 5795 mt 5475 5808 L
5510 7283 mt 5510 7269 L
5510 5795 mt 5510 5808 L
5541 7283 mt 5541 7269 L
5541 5795 mt 5541 5808 L
5568 7283 mt 5568 7269 L
5568 5795 mt 5568 5808 L
5592 7283 mt 5592 7269 L
5592 5795 mt 5592 5808 L
5592 7283 mt 5592 7256 L
5592 5795 mt 5592 5821 L
%%IncludeResource: font Helvetica
/Helvetica /WindowsLatin1Encoding 144 FMSR

5486 7495 mt 
(10) s
%%IncludeResource: font Helvetica
/Helvetica /WindowsLatin1Encoding 96 FMSR

5646 7406 mt 
(1) s
5750 7283 mt 5750 7269 L
5750 5795 mt 5750 5808 L
5843 7283 mt 5843 7269 L
5843 5795 mt 5843 5808 L
5909 7283 mt 5909 7269 L
5909 5795 mt 5909 5808 L
5959 7283 mt 5959 7269 L
5959 5795 mt 5959 5808 L
6001 7283 mt 6001 7269 L
6001 5795 mt 6001 5808 L
6036 7283 mt 6036 7269 L
6036 5795 mt 6036 5808 L
6067 7283 mt 6067 7269 L
6067 5795 mt 6067 5808 L
6094 7283 mt 6094 7269 L
6094 5795 mt 6094 5808 L
6118 7283 mt 6118 7269 L
6118 5795 mt 6118 5808 L
6118 7283 mt 6118 7256 L
6118 5795 mt 6118 5821 L
%%IncludeResource: font Helvetica
/Helvetica /WindowsLatin1Encoding 144 FMSR

6012 7495 mt 
(10) s
%%IncludeResource: font Helvetica
/Helvetica /WindowsLatin1Encoding 96 FMSR

6172 7406 mt 
(2) s
6276 7283 mt 6276 7269 L
6276 5795 mt 6276 5808 L
6369 7283 mt 6369 7269 L
6369 5795 mt 6369 5808 L
6435 7283 mt 6435 7269 L
6435 5795 mt 6435 5808 L
6486 7283 mt 6486 7269 L
6486 5795 mt 6486 5808 L
6527 7283 mt 6527 7269 L
6527 5795 mt 6527 5808 L
6563 7283 mt 6563 7269 L
6563 5795 mt 6563 5808 L
6593 7283 mt 6593 7269 L
6593 5795 mt 6593 5808 L
6620 7283 mt 6620 7269 L
6620 5795 mt 6620 5808 L
6644 7283 mt 6644 7269 L
6644 5795 mt 6644 5808 L
6644 7283 mt 6644 7256 L
6644 5795 mt 6644 5821 L
%%IncludeResource: font Helvetica
/Helvetica /WindowsLatin1Encoding 144 FMSR

6538 7495 mt 
(10) s
%%IncludeResource: font Helvetica
/Helvetica /WindowsLatin1Encoding 96 FMSR

6698 7406 mt 
(3) s
6803 7283 mt 6803 7269 L
6803 5795 mt 6803 5808 L
6895 7283 mt 6895 7269 L
6895 5795 mt 6895 5808 L
6961 7283 mt 6961 7269 L
6961 5795 mt 6961 5808 L
7012 7283 mt 7012 7269 L
7012 5795 mt 7012 5808 L
7054 7283 mt 7054 7269 L
7054 5795 mt 7054 5808 L
7089 7283 mt 7089 7269 L
7089 5795 mt 7089 5808 L
7119 7283 mt 7119 7269 L
7119 5795 mt 7119 5808 L
7146 7283 mt 7146 7269 L
7146 5795 mt 7146 5808 L
7170 7283 mt 7170 7269 L
7170 5795 mt 7170 5808 L
7170 7283 mt 7170 7256 L
7170 5795 mt 7170 5821 L
%%IncludeResource: font Helvetica
/Helvetica /WindowsLatin1Encoding 144 FMSR

7064 7495 mt 
(10) s
%%IncludeResource: font Helvetica
/Helvetica /WindowsLatin1Encoding 96 FMSR

7224 7406 mt 
(4) s
7329 7283 mt 7329 7269 L
7329 5795 mt 7329 5808 L
7421 7283 mt 7421 7269 L
7421 5795 mt 7421 5808 L
7487 7283 mt 7487 7269 L
7487 5795 mt 7487 5808 L
7538 7283 mt 7538 7269 L
7538 5795 mt 7538 5808 L
7580 7283 mt 7580 7269 L
7580 5795 mt 7580 5808 L
7615 7283 mt 7615 7269 L
7615 5795 mt 7615 5808 L
7646 7283 mt 7646 7269 L
7646 5795 mt 7646 5808 L
7672 7283 mt 7672 7269 L
7672 5795 mt 7672 5808 L
7697 7283 mt 7697 7269 L
7697 5795 mt 7697 5808 L
7697 7283 mt 7697 7256 L
7697 5795 mt 7697 5821 L
%%IncludeResource: font Helvetica
/Helvetica /WindowsLatin1Encoding 144 FMSR

7591 7495 mt 
(10) s
%%IncludeResource: font Helvetica
/Helvetica /WindowsLatin1Encoding 96 FMSR

7751 7406 mt 
(5) s
5066 7283 mt 5079 7283 L
7697 7283 mt 7683 7283 L
5066 7283 mt 5092 7283 L
7697 7283 mt 7670 7283 L
%%IncludeResource: font Helvetica
/Helvetica /WindowsLatin1Encoding 144 FMSR

4818 7336 mt 
(10) s
%%IncludeResource: font Helvetica
/Helvetica /WindowsLatin1Encoding 96 FMSR

4978 7247 mt 
(0) s
5066 7133 mt 5079 7133 L
7697 7133 mt 7683 7133 L
5066 7046 mt 5079 7046 L
7697 7046 mt 7683 7046 L
5066 6984 mt 5079 6984 L
7697 6984 mt 7683 6984 L
5066 6936 mt 5079 6936 L
7697 6936 mt 7683 6936 L
5066 6897 mt 5079 6897 L
7697 6897 mt 7683 6897 L
5066 6863 mt 5079 6863 L
7697 6863 mt 7683 6863 L
5066 6835 mt 5079 6835 L
7697 6835 mt 7683 6835 L
5066 6809 mt 5079 6809 L
7697 6809 mt 7683 6809 L
5066 6787 mt 5079 6787 L
7697 6787 mt 7683 6787 L
5066 6787 mt 5092 6787 L
7697 6787 mt 7670 6787 L
%%IncludeResource: font Helvetica
/Helvetica /WindowsLatin1Encoding 144 FMSR

4818 6840 mt 
(10) s
%%IncludeResource: font Helvetica
/Helvetica /WindowsLatin1Encoding 96 FMSR

4978 6751 mt 
(1) s
5066 6637 mt 5079 6637 L
7697 6637 mt 7683 6637 L
5066 6550 mt 5079 6550 L
7697 6550 mt 7683 6550 L
5066 6488 mt 5079 6488 L
7697 6488 mt 7683 6488 L
5066 6440 mt 5079 6440 L
7697 6440 mt 7683 6440 L
5066 6401 mt 5079 6401 L
7697 6401 mt 7683 6401 L
5066 6367 mt 5079 6367 L
7697 6367 mt 7683 6367 L
5066 6339 mt 5079 6339 L
7697 6339 mt 7683 6339 L
5066 6313 mt 5079 6313 L
7697 6313 mt 7683 6313 L
5066 6291 mt 5079 6291 L
7697 6291 mt 7683 6291 L
5066 6291 mt 5092 6291 L
7697 6291 mt 7670 6291 L
%%IncludeResource: font Helvetica
/Helvetica /WindowsLatin1Encoding 144 FMSR

4818 6344 mt 
(10) s
%%IncludeResource: font Helvetica
/Helvetica /WindowsLatin1Encoding 96 FMSR

4978 6255 mt 
(2) s
5066 6141 mt 5079 6141 L
7697 6141 mt 7683 6141 L
5066 6054 mt 5079 6054 L
7697 6054 mt 7683 6054 L
5066 5992 mt 5079 5992 L
7697 5992 mt 7683 5992 L
5066 5944 mt 5079 5944 L
7697 5944 mt 7683 5944 L
5066 5905 mt 5079 5905 L
7697 5905 mt 7683 5905 L
5066 5871 mt 5079 5871 L
7697 5871 mt 7683 5871 L
5066 5843 mt 5079 5843 L
7697 5843 mt 7683 5843 L
5066 5817 mt 5079 5817 L
7697 5817 mt 7683 5817 L
5066 5795 mt 5079 5795 L
7697 5795 mt 7683 5795 L
5066 5795 mt 5092 5795 L
7697 5795 mt 7670 5795 L
%%IncludeResource: font Helvetica
/Helvetica /WindowsLatin1Encoding 144 FMSR

4818 5848 mt 
(10) s
%%IncludeResource: font Helvetica
/Helvetica /WindowsLatin1Encoding 96 FMSR

4978 5759 mt 
(3) s
5066 5795 mt 7697 5795 L
5066 7283 mt 7697 7283 L
7697 7283 mt 7697 5795 L
5066 7283 mt 5066 5795 L
%%IncludeResource: font Helvetica
/Helvetica /WindowsLatin1Encoding 144 FMSR

5880 5681 mt 
(pvalues for T2D) s
4667 6825 mt  -90 rotate
(-log) s
90 rotate
%%IncludeResource: font Helvetica
/Helvetica /WindowsLatin1Encoding 108 FMSR

4739 6549 mt  -90 rotate
(10) s
90 rotate
%%IncludeResource: font Helvetica
/Helvetica /WindowsLatin1Encoding 144 FMSR

4667 6429 mt  -90 rotate
(\(p\)) s
90 rotate
5853 7656 mt 
(sorted list length) s
%%IncludeResource: font Helvetica
/Helvetica /WindowsLatin1Encoding 120 FMSR

5049 7326 mt 
( ) s
7681 5837 mt 
( ) s
gs 5066 5795 2632 1489 rc
24 w
c11
158 6 159 6 158 6 159 6 158 7 158 7 159 10 158 13 
159 22 56 5 2 0 3 1 2 0 2 0 3 1 2 1 
3 0 2 1 3 0 2 1 3 1 2 0 3 1 3 0 
2 1 3 0 3 0 2 1 3 0 3 0 3 0 3 1 
3 0 3 1 3 0 3 1 3 1 3 1 3 1 4 1 
3 0 3 2 4 1 3 1 4 0 3 0 4 0 3 0 
4 1 4 1 4 0 4 1 4 0 4 1 4 1 4 0 
4 1 5 0 4 5 5 0 4 2 5 0 5 1 5 0 
5 1 5 1 5 0 5 0 6 2 5 0 6 1 6 0 
6 1 7 1 6 3 7 1 6 0 7 0 8 3 7 1 
8 1 8 2 8 5 9 1 9 0 9 3 10 7 10 1 
11 6 11 7 12 31 12 1 13 6 14 5 15 0 15 4 
17 5 19 14 20 20 21 8 24 0 27 2 31 4 35 3 
42 20 51 3 65 47 93 1 158 12 5066 6411 110 MP stroke
c8
158 1 159 4 158 4 159 5 158 5 158 4 159 5 158 8 
159 13 56 8 2 0 3 0 2 0 2 1 3 0 2 0 
3 0 2 1 3 0 2 1 3 0 2 0 3 1 3 0 
2 0 3 1 3 0 2 0 3 0 3 0 3 1 3 1 
3 0 3 0 3 0 3 1 3 0 3 0 3 1 4 1 
3 0 3 1 4 1 3 0 4 1 3 0 4 1 3 0 
4 0 4 0 4 1 4 2 4 1 4 1 4 1 4 1 
4 0 5 1 4 0 5 2 4 0 5 0 5 1 5 0 
5 1 5 0 5 0 5 2 6 0 5 0 6 0 6 0 
6 0 7 8 6 3 7 2 6 0 7 0 8 0 7 0 
8 5 8 2 8 5 9 4 9 2 9 7 10 5 10 13 
11 3 11 16 12 2 12 1 13 2 14 1 15 6 15 0 
17 0 19 0 20 10 21 1 24 18 27 9 31 19 35 0 
42 8 51 4 65 0 93 5 158 10 5066 6432 110 MP stroke
c10
158 10 159 10 158 10 159 9 158 8 158 8 159 8 158 9 
159 9 56 2 2 0 3 1 2 0 2 0 3 0 2 0 
3 0 2 0 3 0 2 0 3 1 2 0 3 0 3 0 
2 0 3 0 3 0 2 1 3 0 3 0 3 0 3 0 
3 0 3 0 3 0 3 0 3 0 3 0 3 0 4 1 
3 0 3 0 4 0 3 1 4 0 3 0 4 0 3 0 
4 1 4 0 4 0 4 0 4 0 4 0 4 1 4 0 
4 0 5 1 4 0 5 0 4 0 5 1 5 0 5 1 
5 1 5 0 5 1 5 2 6 0 5 1 6 0 6 1 
6 0 7 0 6 1 7 0 6 0 7 1 8 0 7 1 
8 1 8 1 8 0 9 1 9 1 9 1 10 0 10 2 
11 0 11 2 12 5 12 0 13 0 14 0 15 1 15 0 
17 1 19 5 20 13 21 1 24 0 27 1 31 1 35 31 
42 0 51 4 65 26 93 5 158 89 5066 6602 110 MP stroke
DA
c11
158 4 159 4 158 3 159 4 158 4 158 3 159 4 158 5 
159 6 56 2 2 0 3 0 2 0 2 0 3 0 2 0 
3 1 2 0 3 0 2 0 3 0 2 0 3 1 3 0 
2 0 3 0 3 0 2 0 3 0 3 1 3 0 3 0 
3 0 3 0 3 0 3 0 3 1 3 0 3 0 4 2 
3 0 3 0 4 0 3 0 4 0 3 0 4 1 3 0 
4 0 4 1 4 0 4 0 4 0 4 0 4 1 4 0 
4 1 5 0 4 0 5 0 4 0 5 0 5 1 5 0 
5 0 5 2 5 0 5 0 6 1 5 0 6 2 6 0 
6 0 7 0 6 1 7 0 6 0 7 4 8 0 7 1 
8 0 8 0 8 0 9 11 9 3 9 4 10 1 10 3 
11 3 11 1 12 5 12 0 13 0 14 1 15 1 15 1 
17 1 19 1 20 1 21 0 24 0 27 2 31 0 35 4 
42 1 51 2 65 12 93 10 158 7 5066 7040 110 MP stroke
c9
158 3 159 148 158 0 159 1 158 0 158 1 159 1 158 1 
159 2 56 1 2 0 3 0 2 0 2 0 3 0 2 0 
3 0 2 0 3 0 2 0 3 1 2 0 3 0 3 0 
2 0 3 0 3 0 2 0 3 0 3 0 3 0 3 0 
3 0 3 0 3 0 3 0 3 0 3 0 3 1 4 0 
3 0 3 0 4 0 3 0 4 0 3 0 4 0 3 0 
4 0 4 1 4 0 4 0 4 1 4 0 4 0 4 0 
4 0 5 0 4 0 5 0 4 0 5 1 5 0 5 0 
5 0 5 0 5 1 5 0 6 2 5 0 6 0 6 0 
6 0 7 2 6 0 7 1 6 0 7 0 8 3 7 0 
8 2 8 0 8 0 9 0 9 2 9 0 10 0 10 1 
11 0 11 0 12 7 12 0 13 0 14 0 15 0 15 0 
17 0 19 1 20 5 21 9 24 0 27 0 31 14 35 0 
42 0 51 26 65 0 93 47 158 136 5066 5822 110 MP stroke
SO
6 w
gr

c9
1 sg
0 2053 1278 0 0 -2053 1748 7401 4 MP
PP
-1278 0 0 2053 1278 0 0 -2053 1748 7401 5 MP stroke
4 w
DO
SO
6 w
0 sg
1748 5348 mt 3026 5348 L
1748 7401 mt 3026 7401 L
3026 7401 mt 3026 5348 L
1748 7401 mt 1748 5348 L
1748 7401 mt 3026 7401 L
1748 7401 mt 1748 5348 L
1748 5348 mt 3026 5348 L
1748 7401 mt 3026 7401 L
3026 7401 mt 3026 5348 L
1748 7401 mt 1748 5348 L
%%IncludeResource: font Helvetica
/Helvetica /WindowsLatin1Encoding 144 FMSR

2220 5591 mt 
(Chi) s
%%IncludeResource: font Helvetica
/Helvetica /WindowsLatin1Encoding 108 FMSR

2436 5519 mt 
(2) s
gs 1748 5348 1279 2054 rc
24 w
c11
363 0 1820 5520 2 MP stroke
gr

24 w
c11
0 sg
%%IncludeResource: font Helvetica
/Helvetica /WindowsLatin1Encoding 144 FMSR

2220 5836 mt 
(SS) s
gs 1748 5348 1279 2054 rc
c8
363 0 1820 5785 2 MP stroke
gr

c8
0 sg
2220 6072 mt 
(DSS) s
gs 1748 5348 1279 2054 rc
c9
363 0 1820 6020 2 MP stroke
gr

c9
0 sg
2220 6308 mt 
(plink fastepi) s
gs 1748 5348 1279 2054 rc
c10
363 0 1820 6256 2 MP stroke
gr

c10
0 sg
2220 6544 mt 
(Info. Gain) s
gs 1748 5348 1279 2054 rc
363 0 1820 6492 2 MP stroke
gr

2220 6780 mt 
(SHEsisEpi) s
gs 1748 5348 1279 2054 rc
DA
c11
363 0 1820 6728 2 MP stroke
SO
gr

c11
0 sg
2220 7016 mt 
(Epiblaster) s
gs 1748 5348 1279 2054 rc
DA
c8
363 0 1820 6963 2 MP stroke
SO
gr

c8
0 sg
2220 7299 mt 
(2Chi) s
%%IncludeResource: font Helvetica
/Helvetica /WindowsLatin1Encoding 108 FMSR

2516 7227 mt 
(2) s
gs 1748 5348 1279 2054 rc
DA
6 w
c9
363 0 1820 7228 2 MP stroke
SO
gr

6 w
c9

end %%Color Dict

eplot
%%EndObject

epage
end

showpage

%%Trailer
%%EOF
